[
  {"targetValue": "(string \"~(.*e.*)\")", "utterance": "lines which do not contain the letter \"e\"."},
  {"targetValue": "(string \"agde\")", "utterance": "lines that contain only the letters \"agde\"."},
  {"targetValue": "(string \".*\\\\b[A-Za-z]*er\\\\b.*\")", "utterance": "lines using words  ending in \"er\"."},
  {"targetValue": "(string \"[a-z]*\")", "utterance": "lines which contain only lowercase letters."},
  {"targetValue": "(string \".*\\\\bdance\\\\b.*\")", "utterance": "lines that contain the word \"dance\""},
  {"targetValue": "(string \".*((\\\\b[A-Za-z]+\\\\b)&(.*[AEIOUaeiou].*){3}).*\")", "utterance": "lines with words that contain 3 vowels."},
  {"targetValue": "(string \".*bar.*\")", "utterance": "lines which have 'bar'"},
  {"targetValue": "(string \".*((\\\\b[A-Za-z]+\\\\b)&(.*spoon)).*\")", "utterance": "lines using a word that ends in \"spoon\""},
  {"targetValue": "(string \"(.*[A-Z].*){3}\")", "utterance": "lines that include three capital letters"},
  {"targetValue": "(string \".*\\\\bz[A-Za-z]*\\\\b.*\")", "utterance": "lines using words that begin with \"z\"."},
  {"targetValue": "(string \"(.*[0-9].*){5,}\")", "utterance": "lines that have at least 5 numbers."},
  {"targetValue": "(string \".*f\")", "utterance": "lines that ends with letter 'f'"},
  {"targetValue": "(string \".*\\\\b[A-Za-z]*der[A-Za-z]*\\\\b.*\")", "utterance": "lines using a word that contains the letters \"der\""},
  {"targetValue": "(string \"(([^A-Za-z])*\\\\b[A-Za-z]+\\\\b([^A-Za-z])*){3}\")", "utterance": "lines using only three words"},
  {"targetValue": "(string \"uu.*\\\\bz[A-Za-z]*\\\\b.*\")", "utterance": "lines starting with 'uu' followed by words starting with 'z'."},
  {"targetValue": "(string \"(.*\\\\b[A-Za-z]{4}\\\\b.*){2}\")", "utterance": "lines that have 2 words using 4 letters"},
  {"targetValue": "(string \".*\\\\b[A-Za-z]*ing\\\\b.*\")", "utterance": "lines that have words ending in 'ing'"},
  {"targetValue": "(string \"(.*254.*){2}\")", "utterance": "lines that contain the number \"254\" at least twice."},
  {"targetValue": "(string \".*\\\\bart\\\\b.*\")", "utterance": "lines containing the word 'art'"},
  {"targetValue": "(string \"[A-Z]\")", "utterance": "lines which contain only an uppercase letter"},
  {"targetValue": "(string \".*[0-9].*\")", "utterance": "lines that contain at least one numeric in it."},
  {"targetValue": "(string \".*o\")", "utterance": "lines that end in an 'o'"},
  {"targetValue": "(string \"(.*a.*)&(.*b.*)&(.*c.*)\")", "utterance": "lines that have all the letters 'a' , 'b' and 'c'"},
  {"targetValue": "(string \".*\\\\b[A-Za-z]*ne\\\\b.*\")", "utterance": "lines having words ending with 'ne'."},
  {"targetValue": "(string \"(.*World War II.*)&(.*casualties.*)\")", "utterance": "lines that contain \"World War II\" and contain \"casualties\"."},
  {"targetValue": "(string \".*(9.*10|10.*9).*\")", "utterance": "lines that contain the numbers \"9\", and \"10\""},
  {"targetValue": "(string \".*(son|soon).*su.*\")", "utterance": "lines using \"su\" after \"son\" or \"soon\"."},
  {"targetValue": "(string \".*(([A-Za-z]+)&(\\\\bdo.*\\\\b)).*\")", "utterance": "lines that utilize words starting with 'do'."},
  {"targetValue": "(string \".*q.*r.*\")", "utterance": "lines using 'q' before 'r'"},
  {"targetValue": "(string \".*\\\\b[A-Za-z]*tt[A-Za-z]*\\\\b.*\")", "utterance": "lines containing a word using the letters \"tt\"."},
  {"targetValue": "(string \".*.{2,}.*\")", "utterance": "lines using more than 1 character"},
  {"targetValue": "(string \".*\\\\b[A-Za-z]*ru[A-Za-z]*\\\\b.*\")", "utterance": "lines that contain words with 'ru'."},
  {"targetValue": "(string \".*\\\\b[A-Za-z]*ause[A-Za-z]*\\\\b.*\")", "utterance": "lines containing a word using \"ause\" "},
  {"targetValue": "(string \".*ABC.*JFK.*\")", "utterance": "lines containing instances of \"JFK\" found after \"ABC\""},
  {"targetValue": "(string \"(.*\\\\b[A-Za-z][A-Za-z]*\\\\b.*){3}&(.*[0-9].*)\")", "utterance": "lines that contain at least three words and at least one number."},
  {"targetValue": "(string \".*[0-9].*\")", "utterance": "lines that contain numbers"},
  {"targetValue": "(string \".*\\\\bgoing\\\\b.*d.*\")", "utterance": "lines using the word \"going\" followed by \"d\"."},
  {"targetValue": "(string \"(.*sandwich.*)&(~(.*\\\\bham\\\\b.*))\")", "utterance": "lines that have 'sandwich' but not the word 'ham'"},
  {"targetValue": "(string \".*((\\\\bt.*\\\\b)&([A-Za-z]+)).*\")", "utterance": "lines containing words starting with \"t\"."},
  {"targetValue": "(string \".*((\\\\b[A-Za-z][A-Za-z]*\\\\b)&(.*g)).*\")", "utterance": "lines that contain words ending in 'g'"},
  {"targetValue": "(string \".*\\\\b[A-Za-z]*[AEIOUaeiou]\\\\b.*\")", "utterance": "lines that contain words ending with vowels."},
  {"targetValue": "(string \".*\\\\bs[A-Za-z]*\\\\b.*\")", "utterance": "lines that use words starting with 's'."},
  {"targetValue": "(string \"(.*\\\\b[A-Za-z]+\\\\b.*){2,}\")", "utterance": "lines using 2 words or more"},
  {"targetValue": "(string \".*(.*\\\\bpiggy\\\\b.*)&(.*his mother.*)\")", "utterance": "lines using the word \"piggy\" and \"his mother\"."},
  {"targetValue": "(string \"(.{5})&(~(.*[AEIOUaeiou].*))\")", "utterance": "lines that have 5 characters and no vowels."},
  {"targetValue": "(string \"(.*[AEIOUaeiou].*)&(.*[0-9].*){2}\")", "utterance": "lines that contain at least one vowel and at least two numbers."},
  {"targetValue": "(string \".*.{3}.*\")", "utterance": "lines using at least 3 characters"},
  {"targetValue": "(string \".*(.*\\\\bcity of\\\\b.*).*\")", "utterance": "lines that contain the phrase \"city of\"."},
  {"targetValue": "(string \"([^A-Za-z]*\\\\b[A-Za-z][A-Za-z]*\\\\b[^A-Za-z]*){2,7}\")", "utterance": "lines that contain between two to seven words."},
  {"targetValue": "(string \".*\\\\bga[A-Za-z]*\\\\b.*\")", "utterance": "lines that use words starting with 'ga'."},
  {"targetValue": "(string \".*((\\\\b[A-Za-z]+\\\\b)&(k.*)).*\")", "utterance": "lines any words beginning with the letter 'k'."},
  {"targetValue": "(string \".*8.*\")", "utterance": "lines containing any number with an '8' in it."},
  {"targetValue": "(string \"3\")", "utterance": "lines which contain only the number \"3\"."},
  {"targetValue": "(string \".*\\\\bpa[A-Za-z]*\\\\b.*\")", "utterance": "lines that contain words starting with 'pa'."},
  {"targetValue": "(string \"(([^A-Za-z])*\\\\b[A-Za-z]+\\\\b([^A-Za-z])*){3}\")", "utterance": "lines that contain only three words."},
  {"targetValue": "(string \"(.*Dylan.*Lynda.*)|(.*Lynda.*Dylan.*)\")", "utterance": "lines that mention 'Dylan' in the same line as 'Lynda'."},
  {"targetValue": "(string \".*(foo|nu).*(dist|dust).*\")", "utterance": "lines containing \"foo\" or \"nu\" before 'dist' or 'dust' "},
  {"targetValue": "(string \".*0.*\")", "utterance": "lines where the number '0' appears"},
  {"targetValue": "(string \".*email.*\\\\bspam\\\\b.*\")", "utterance": "lines that feature 'email' followed by the word \"spam\"."},
  {"targetValue": "(string \".*\\\\b[A-Za-z]*ch\\\\b.*\")", "utterance": "lines that have within them words ending in 'ch'."},
  {"targetValue": "(string \".*\\\\bclue\\\\b.*\")", "utterance": "lines using the word \"clue\""},
  {"targetValue": "(string \".*news.*(paper|show).*\")", "utterance": "lines that contain 'news' before 'paper' or 'show'."},
  {"targetValue": "(string \"~(.*\\\\bfoo\\\\b.*)\")", "utterance": "lines that do not contain the word \"foo\""},
  {"targetValue": "(string \".*min.*imal.*\")", "utterance": "lines using 'min' before 'imal'"},
  {"targetValue": "(string \".*rst.*\")", "utterance": "lines that include the string 'rst'"},
  {"targetValue": "(string \"(.*\\\\bh[A-Za-z]*\\\\b.*){2}\")", "utterance": "lines that contain at least two words starting with \"h\" in them."},
  {"targetValue": "(string \".*\\\\bAn\\\\b.*\")", "utterance": "lines using the word 'An' at least once."},
  {"targetValue": "(string \"[0-9].*\")", "utterance": "lines that begin with a number"},
  {"targetValue": "(string \".*\\\\b[A-Za-z]*ti\\\\b.*\")", "utterance": "lines that have words ending with 'ti'."},
  {"targetValue": "(string \"~(.*x.*)\")", "utterance": "lines that do not contain the character \"x\""},
  {"targetValue": "(string \".*\\\\b[A-Za-z]*ope[A-Za-z]*\\\\b.*\")", "utterance": "lines using words containing \"ope\"."},
  {"targetValue": "(string \".*\\\\bbi[A-Za-z]*\\\\b.*\")", "utterance": "lines that use words starting with 'bi'."},
  {"targetValue": "(string \".*oon.*\")", "utterance": "lines using 'oon' "},
  {"targetValue": "(string \".*\\\\bg[A-Za-z]*\\\\b.*\")", "utterance": "lines using words beginning with the letter \"g\""},
  {"targetValue": "(string \".*\\\\bcode\\\\b.*\")", "utterance": "lines containing any mention of the word \"code\"."},
  {"targetValue": "(string \"(.*\\\\b[A-Za-z]+\\\\b.*){5}\")", "utterance": "lines that contain 5 words"},
  {"targetValue": "(string \"(.*\\\\bth[A-Za-z]*\\\\b.*)&(.*7[0-9]*.*)\")", "utterance": "lines that have a word beginning with th and a number that begins in \"7\""},
  {"targetValue": "(string \"~(.*[a-z].*)\")", "utterance": "lines that have all of its letters capitalized."},
  {"targetValue": "(string \".*pqr.*mno.*\")", "utterance": "lines using 'mno' after 'pqr'"},
  {"targetValue": "(string \".*[A-Z][A-Z].*\")", "utterance": "lines where there are two consecutive capital letters"},
  {"targetValue": "(string \".*[A-Za-z].*\")", "utterance": "lines containing a letter"},
  {"targetValue": "(string \".*\\\\borange\\\\b.*\")", "utterance": "lines that contain the word \"orange\"."},
  {"targetValue": "(string \".*\\\\b[A-Za-z]{1,5}\\\\b.*\")", "utterance": "lines using a word of 5 letters or less."},
  {"targetValue": "(string \".*\\\\b[A-Za-z]*la[A-Za-z]*\\\\b.*\")", "utterance": "lines that have words with 'la'."},
  {"targetValue": "(string \".*(\\+|-).*\")", "utterance": "lines that using the symbol '+' or '-'."},
  {"targetValue": "(string \".*\\\\bHindi\\\\b.*\")", "utterance": "lines that contain the word \"Hindi\"."},
  {"targetValue": "(string \".*((\\\\b[A-Za-z][A-Za-z]*\\\\b)&(.*e.*i.*)).*\")", "utterance": "lines using words containing \"e\" before \"i\"."},
  {"targetValue": "(string \".*[A-Z].*\")", "utterance": "lines that have at least one capital letter."},
  {"targetValue": "(string \"([^A-Za-z]*\\\\b[A-Za-z]+\\\\b[^A-Za-z]*){3,6}\")", "utterance": "lines that have at least 3, but not more that 6 words."},
  {"targetValue": "(string \".*mix.*|.*shake.*\")", "utterance": "lines that contain \"mix\" or \"shake\"."},
  {"targetValue": "(string \".*\\\\b[A-Za-z][A-Za-z]*\\\\b.*\")", "utterance": "lines that have 1 word in them"},
  {"targetValue": "(string \".*[0-9].*PQR.*LMNO.*|.*LMNO.*PQR.*[0-9].*\")", "utterance": "lines where \"PQR\" is between a number and \"LMNO\""},
  {"targetValue": "(string \".*\\\\b[A-Za-z]{7}\\\\b.*\")", "utterance": "lines that have words with 7 letters."},
  {"targetValue": "(string \".*[0-9].*\")", "utterance": "lines that have one number"},
  {"targetValue": "(string \".*a.*b.*\")", "utterance": "lines containing 'a' before 'b'"},
  {"targetValue": "(string \".*(h|i).*\")", "utterance": "lines containing 'h', or 'i'"},
  {"targetValue": "(string \".*((\\\\bde.*\\\\b)&([A-Za-z]+)).*\")", "utterance": "lines that contain words starting with 'de'."},
  {"targetValue": "(string \".*((\\\\b[A-Za-z][A-Za-z]*\\\\b)&(q.*)).*\")", "utterance": "lines that include words starting with 'q'."},
  {"targetValue": "(string \"(.*butterflies.*)&(.*fireflies.*)\")", "utterance": "lines that mention both 'butterflies' and 'fireflies'."},
  {"targetValue": "(string \".*(ject|pel).*\")", "utterance": "lines that contain 'ject' or 'pel'"},
  {"targetValue": "(string \".*Stacks.*\\\\bJim\\\\b.*Slim.*|.*Slim.*\\\\bJim\\\\b.*Stacks.*\")", "utterance": "lines that carry the word \"Jim\" located in between \"Stacks\" and \"Slim\"."},
  {"targetValue": "(string \"(.*d.*){5,}\")", "utterance": "lines using at least 5 'd'"},
  {"targetValue": "(string \"(.*[0-9].*){2,}\")", "utterance": "lines that contain at least 2 digits."},
  {"targetValue": "(string \".*\\\\b[A-Za-z]*ca[A-Za-z]*\\\\b.*\")", "utterance": "lines using words with 'ca'."},
  {"targetValue": "(string \"(([^A-Za-z])*\\\\b[A-Za-z]+\\\\b([^A-Za-z])*){3}\")", "utterance": "lines that have only 3 words"},
  {"targetValue": "(string \"(.*[0-9].*){2,}\")", "utterance": "lines that have 2 or more numbers."},
  {"targetValue": "(string \".*[A-Za-z]{2}.*\")", "utterance": "lines that have a 2 letter sequence"},
  {"targetValue": "(string \"(.*((\\\\b[A-Za-z]+\\\\b)&(fe.*)).*).*\")", "utterance": "lines that include words starting with 'fe'."},
  {"targetValue": "(string \"~(.*.{4,}.*)\")", "utterance": "lines not containing 4 or more characters"},
  {"targetValue": "(string \".*z\")", "utterance": "lines that end containing the letter \"z\"."},
  {"targetValue": "(string \"(.*\\\\b[A-Za-z]+\\\\b.*){3,}\")", "utterance": "lines which have three words."},
  {"targetValue": "(string \".*sec.*mun.*\")", "utterance": "lines with \"sec\" before \"mun\"."},
  {"targetValue": "(string \".*(.*\\\\b[A-Za-z]*a\\\\b.*){2}.*\")", "utterance": "lines that have two or more words ending in \"a\"."},
  {"targetValue": "(string \"(.*\\\\b[A-Za-z]+\\\\b.*){6}\")", "utterance": "lines that have 6 words."},
  {"targetValue": "(string \"~(.*[0-9].*)\")", "utterance": "lines that do not contain any number"},
  {"targetValue": "(string \".*(k|l).*\")", "utterance": "lines containing 'k', or 'l'"},
  {"targetValue": "(string \".*\\\\b[A-Za-z]*mae\\\\b.*\")", "utterance": "lines that contain words ending with 'mae'."},
  {"targetValue": "(string \".*\\\\bh[A-Za-z]*\\\\b.*\")", "utterance": "lines that contain words starting with 'h'."},
  {"targetValue": "(string \"~(.*a.*)\")", "utterance": "lines that do not contain the letter \"a\""},
  {"targetValue": "(string \".*\\\\bhero\\\\b.*\")", "utterance": "lines using the word \"hero\"."},
  {"targetValue": "(string \".*((\\\\b[A-Za-z][A-Za-z]*\\\\b)&(pi.*)).*\")", "utterance": "lines that have words starting with 'pi'."},
  {"targetValue": "(string \".*\\\\bkai[A-Za-z]*\\\\b.*\")", "utterance": "lines that have words starting with 'kai'."},
  {"targetValue": "(string \"(.*(dogs|cats).*)&(~(.*mice.*))\")", "utterance": "Find lines that mention dogs or cats but not any with mice"},
  {"targetValue": "(string \".*(a|b).*\\\\b[A-Za-z]*er\\\\b.*\")", "utterance": "lines that use 'a' or 'b' before words ending with 'er'."},
  {"targetValue": "(string \"abc.*\")", "utterance": "lines starting with 'abc'"},
  {"targetValue": "(string \".*(.*\\\\b[A-Za-z]+\\\\b.*){3}&(.*[0-9].*){2}.*\")", "utterance": "lines that contain 3 words and have at least 2 numbers."},
  {"targetValue": "(string \".*def.*abc.*\")", "utterance": "lines using 'abc' after 'def'"},
  {"targetValue": "(string \".*\\\\bhairy\\\\b.*\")", "utterance": "lines which feature the word 'hairy'."},
  {"targetValue": "(string \".*\\\\bcrack\\\\b.*\")", "utterance": "lines containing the word \"crack\"."},
  {"targetValue": "(string \"(.*j.*){3}\")", "utterance": "lines that have at least three \"j\"."},
  {"targetValue": "(string \".*turn.*\")", "utterance": "lines that have 'turn'"},
  {"targetValue": "(string \".*jkl.*ghi.*\")", "utterance": "lines using 'ghi' after 'jkl'"},
  {"targetValue": "(string \"(.*[A-Z].*)&(.*[a-z].*)\")", "utterance": "lines which contain a mix of uppercase letters and lowercase letters"},
  {"targetValue": "(string \"~(.*\\\\b[A-Z-a-z]{6,}\\\\b.*)\")", "utterance": "lines where no word is more than 5 characters"},
  {"targetValue": "(string \".*\\\\b[A-Za-z]+d[A-Za-z]+\\\\b.*\")", "utterance": "lines using \"d\" in the middle of a word."},
  {"targetValue": "(string \"(.*d.*){5}\")", "utterance": "lines using 5 'd'"},
  {"targetValue": "(string \".*[A-Z].*\")", "utterance": "lines with capital letters"},
  {"targetValue": "(string \".*(e|f).*\")", "utterance": "lines containing 'e', or 'f'"},
  {"targetValue": "(string \".*[A-Za-z]{5}.*\")", "utterance": "lines using a 5 letter sequence"},
  {"targetValue": "(string \".*\\\\bch[A-Za-z]*\\\\b.*\")", "utterance": "lines which contain a word starting with \"ch\""},
  {"targetValue": "(string \".*((\\\\b[A-Za-z][A-Za-z]*\\\\b)&(po.*)).*\")", "utterance": "lines that contain words starting with 'po'."},
  {"targetValue": "(string \".*.*\\\\blaw\\\\b.*\")", "utterance": "lines utilizing the word 'law'."},
  {"targetValue": "(string \"([^b])*b([^b])*\")", "utterance": "lines that have only one b."},
  {"targetValue": "(string \".*44.*\")", "utterance": "lines that have the number \"44\"."},
  {"targetValue": "(string \".*A.*[AEIOUaeiou].*\")", "utterance": "lines that contain the letter \"A\" followed by a vowel."},
  {"targetValue": "(string \".*((\\\\b[A-Za-z]+\\\\b)&(.*oo.*)).*\")", "utterance": "lines that contain words with 'oo'."},
  {"targetValue": "(string \".*(.*[0-9].*){7}.*\")", "utterance": "lines which have at least 7 numbers."},
  {"targetValue": "(string \".*you\")", "utterance": "lines which end with 'you' "},
  {"targetValue": "(string \".*((\\\\b[A-Za-z][A-Za-z]*\\\\b)&(.*ol)).*\")", "utterance": "lines that contain words ending with 'ol'."},
  {"targetValue": "(string \".*[0-9].*\")", "utterance": "lines that contain a digit."},
  {"targetValue": "(string \".*\\\\b[A-Za-z]*der[A-Za-z]*\\\\b.*\")", "utterance": "lines using a word having the string \"der\""},
  {"targetValue": "(string \".{0,20}\")", "utterance": "lines that are 20 characters or less"},
  {"targetValue": "(string \".*\\\\b[A-Za-z]+\\\\b.*\")", "utterance": "lines containing a word"},
  {"targetValue": "(string \"once\\\\b.*\")", "utterance": "lines that begin with the word \"once\"."},
  {"targetValue": "(string \".*((\\\\b[A-Za-z][A-Za-z]*\\\\b)&(ac.*)).*\")", "utterance": "lines that contain words starting with 'ac'."},
  {"targetValue": "(string \".*\\\\b[A-Za-z]*n\\\\b.*\")", "utterance": "lines that contain words ending in 'n'"},
  {"targetValue": "(string \".*eye.*\")", "utterance": "lines that have 'eye'"},
  {"targetValue": "(string \".*\\\\b[A-Za-z]{3}\\\\b.*\")", "utterance": "lines that contain three letter words in them."},
  {"targetValue": "(string \".*\\\\b[A-Za-z]{5}\\\\b.*\")", "utterance": "lines that contain five letter words."},
  {"targetValue": "(string \"~(.*life.*)\")", "utterance": "lines which do not have \"life\"."},
  {"targetValue": "(string \"[0-9].*\")", "utterance": "lines which start with a number."},
  {"targetValue": "(string \"z.*a\")", "utterance": "lines that start with a 'z' and end with an 'a'."},
  {"targetValue": "(string \"(.*[0-9].*)&(.*[AEIOUaeiou].*)\")", "utterance": "lines that have instances of a number and a vowel"},
  {"targetValue": "(string \"(.*[A-Z].*)&(.*[a-z].*)\")", "utterance": "lines which have both uppercase letters and lowercase letters."},
  {"targetValue": "(string \".*\\\\b[A-Za-z]{5}\\\\b.*\")", "utterance": "lines containing 5 letter words."},
  {"targetValue": "(string \".*(billy|bob).*\")", "utterance": "lines that match \"billy\" or \"bob\"."},
  {"targetValue": "(string \"(.*y.*){5,}\")", "utterance": "lines which contain five or more \"y\""},
  {"targetValue": "(string \".*\\\\bne[A-Za-z]*\\\\b.*\")", "utterance": "lines that include words starting with 'ne'."},
  {"targetValue": "(string \".*\\\\bx[A-Za-z]*\\\\b.*\")", "utterance": "lines containing words that start with 'x'"},
  {"targetValue": "(string \".*(ge|an).*(ger|tra).*\")", "utterance": "lines containing \"ge\" or \"an\" before 'ger' or 'tra'"},
  {"targetValue": "(string \".*gh\")", "utterance": "lines that end with\"gh\""},
  {"targetValue": "(string \".*sorry.*\")", "utterance": "lines which contain \"sorry\" "},
  {"targetValue": "(string \"(.*tch.*)&(~(.*wi.*))\")", "utterance": "lines with \"tch\" but not \"wi\"."},
  {"targetValue": "(string \"far.*\")", "utterance": "lines that start with 'far' "},
  {"targetValue": "(string \".*\\\\b[A-Za-z]*(y|i)\\\\b.*\")", "utterance": "lines using words that end in \"y\" or \"i\"."},
  {"targetValue": "(string \"(.*2005.*)&(.*May.*)&(Mary.*)\")", "utterance": "lines that contain the number \"2005\" and \"May\" and begin with \"Mary\"."},
  {"targetValue": "(string \".*5.*8.*\")", "utterance": "lines with an '8' that comes after a '5'."},
  {"targetValue": "(string \".*((w.*)&(\\\\b[A-Za-z][A-Za-z]*\\\\b)).*\")", "utterance": "lines utilizing words starting with 'w'."},
  {"targetValue": "(string \".*\\\\bth[A-Za-z]*\\\\b.*\")", "utterance": "lines containing words that start with \"th\""},
  {"targetValue": "(string \".*(ig|physics).*nobel.*\")", "utterance": "lines that contain 'ig' or 'physics' before 'nobel'."},
  {"targetValue": "(string \"(.*st.*)&(.*gy.*)\")", "utterance": "lines containing 'st' and containing 'gy' too"},
  {"targetValue": "(string \".*NOW.*\")", "utterance": "lines that contain the text \"NOW\""},
  {"targetValue": "(string \".*hello.*\")", "utterance": "lines that contain the text \"hello\""},
  {"targetValue": "(string \".*(.*\\\\bP[A-Za-z]*\\\\b.*){5}.*\")", "utterance": "lines that contain five words that begin with \"P\"."},
  {"targetValue": "(string \".*\\\\b[A-Za-z]*ge\\\\b.*\")", "utterance": "lines that have words ending with 'ge'."},
  {"targetValue": "(string \".*\\\".*\")", "utterance": "Look for any line with the '\"' symbol."},
  {"targetValue": "(string \".*itch.*\")", "utterance": "lines using an instance of 'itch'"},
  {"targetValue": "(string \"(.*[AEIOUaeiou].*){3}\")", "utterance": "lines containing three vowels"},
  {"targetValue": "(string \"(.*ers.*)&(.*oxy.*)\")", "utterance": "lines containing 'ers' and containing 'oxy' too"},
  {"targetValue": "(string \"(.*[0-9].*){7,}\")", "utterance": "lines that have more than 6 numbers."},
  {"targetValue": "(string \".*((\\\\b[A-Za-z]+\\\\b)&(Goal)).*\")", "utterance": "lines with the word 'Goal' in them."},
  {"targetValue": "(string \"Therefore.*\")", "utterance": "lines beginning with \"Therefore\""},
  {"targetValue": "(string \".*\\\\blove\\\\b.*\\\\byou\\\\b.*\")", "utterance": "lines that have the word \"love\" preceeding the word \"you\"."},
  {"targetValue": "(string \".*(a[A-Za-z]{2}).*\")", "utterance": "lines which contain a 3 letter string starting with a"},
  {"targetValue": "(string \"T.*\")", "utterance": "lines starting with a \"T\"."},
  {"targetValue": "(string \".*ba.*\")", "utterance": "lines that contain the letters 'ba'."},
  {"targetValue": "(string \"(.*\\\\b[A-Za-z]+\\\\b.*){4,}\")", "utterance": "lines that are composed of 4 or more words."},
  {"targetValue": "(string \".*(.*\\\\bGeorge\\\\b.*)&(.*62.*).*\")", "utterance": "lines using the word \"George\" and the number \"62\"."},
  {"targetValue": "(string \".*\\\\bb[A-Za-z]*\\\\b.*\")", "utterance": "lines utilizing words starting with 'b'."},
  {"targetValue": "(string \".*\\\\bboom\\\\b.*\\\\bka[A-Za-z]*\\\\b.*\")", "utterance": "lines that use the word 'boom' followed by words starting with 'ka'"},
  {"targetValue": "(string \".*[0-9]\")", "utterance": "lines that end in a number"},
  {"targetValue": "(string \".*((\\\\b[A-Za-z]+\\\\b)&(.*ce.*)).*\")", "utterance": "lines that use words with 'ce'."},
  {"targetValue": "(string \".*[0-9].*\")", "utterance": "lines which have at least 1 numeric character."},
  {"targetValue": "(string \".*\\\\bq[A-Za-z]*\\\\b.*\")", "utterance": "lines that contain at least one word starting with 'q'."},
  {"targetValue": "(string \".*twist.*\")", "utterance": "lines that have 'twist'"},
  {"targetValue": "(string \"xyz(.*xyz)?\")", "utterance": "lines containing words that start with and end with \"xyz\""},
  {"targetValue": "(string \"(.*x.*)&(.*y.*)\")", "utterance": "lines containing 'x' and containing 'y' too"},
  {"targetValue": "(string \".*\\\\b[A-Za-z]*la\\\\b.*\")", "utterance": "lines that contain words ending with 'la'."},
  {"targetValue": "(string \"(.*[0-9].*){3}&(.*\\\\bColumbia\\\\b.*)\")", "utterance": "lines that have 3 numbers and contain the word \"Columbia\"."},
  {"targetValue": "(string \".*[0-9].*\")", "utterance": "lines that contain at least one number."},
  {"targetValue": "(string \".*((\\\\b[A-Za-z]+\\\\b)&(ke.*)).*\")", "utterance": "lines that contain words starting with 'ke'."},
  {"targetValue": "(string \".*\\\\b[A-Za-z]{1,6}\\\\b.*\")", "utterance": "lines that contain a word using at most 6 letters"},
  {"targetValue": "(string \".*(ent|ong).*\")", "utterance": "lines using 'ent' or 'ong'"},
  {"targetValue": "(string \".*\\\\b[A-Za-z]*[aeiouAEIOU][A-Za-z]*\\\\b.*\")", "utterance": "lines containing words using a vowel."},
  {"targetValue": "(string \".*\\\\b[A-Za-z]*y\\\\b.*\")", "utterance": "lines with words ending in 'y'."},
  {"targetValue": "(string \"(.*19.*){2}\")", "utterance": "lines that contain 2 numbers that contain \"19\"."},
  {"targetValue": "(string \"(.*[A-Z].*){2,}\")", "utterance": "lines that contain at least 2 capital letters."},
  {"targetValue": "(string \".*[A-Za-z]{6}.*\")", "utterance": "lines containing a 6 letter sequence"},
  {"targetValue": "(string \"(.*c.*){2,}\")", "utterance": "lines where the letter c appears more than one time"},
  {"targetValue": "(string \"[AEIOUaeiou]*\")", "utterance": "lines which contain only vowels."},
  {"targetValue": "(string \".*\\\\b[A-Za-z]*i\\\\b.*\")", "utterance": "lines that contain words ending in 'i'."},
  {"targetValue": "(string \"(.*ast.*).*\")", "utterance": "lines containing \"ast\""},
  {"targetValue": "(string \".*the.*\")", "utterance": "lines using 'the'"},
  {"targetValue": "(string \"(.*on.*)&(.*off.*)\")", "utterance": "lines containing 'on' and also containing 'off'"},
  {"targetValue": "(string \".*trolls.*\")", "utterance": "lines that mention 'trolls'."},
  {"targetValue": "(string \"((.*[AEIOUaeiou].*)&(.*[0-9].*){2})\")", "utterance": "lines that contain at least one vowel and at least two numbers"},
  {"targetValue": "(string \"\\\\bthe\\\\b.*\")", "utterance": "lines that begin with the word \"the\""},
  {"targetValue": "(string \".*\\\\b[A-Za-z]*ri[A-Za-z]*\\\\b.*\")", "utterance": "lines that contain words with 'ri'."},
  {"targetValue": "(string \"(.*[AEIOUaeiou].*){3,}\")", "utterance": "lines which contain 3 or more vowels."},
  {"targetValue": "(string \".*(.*sw.*){3}.*\")", "utterance": "lines using 3 instances of 'sw'"},
  {"targetValue": "(string \"([^A-Za-z]*\\\\b[A-Za-z]+\\\\b[^A-Za-z]*){0,2}[^A-Za-z]*\\\\bape\\\\b.*\")", "utterance": "lines that contain instances of 'ape', but only if its one of the first three words."},
  {"targetValue": "(string \"(.*\\\\ba[A-Za-z]*\\\\b.*)&(.*\\\\bz[A-Za-z]*\\\\b.*)\")", "utterance": "lines which contain a word starting with the letter \"a\" and a word starting with the letter \"z\"."},
  {"targetValue": "(string \".*(.*May.*)&(.*June.*).*\")", "utterance": "lines that show \"May\" and \"June\"."},
  {"targetValue": "(string \".*\\\\bno[A-Za-z]*\\\\b.*\")", "utterance": "lines that use words starting with 'no'."},
  {"targetValue": "(string \".*this is it.*\")", "utterance": "lines that contain the text \"this is it\"."},
  {"targetValue": "(string \"(the.*).*\")", "utterance": "lines that start with \"the\"."},
  {"targetValue": "(string \"(.*a.*)&(.*5.*)\")", "utterance": "lines that show the letter \"a\" and number \"5\"."},
  {"targetValue": "(string \".*(e|ky).*din.*\")", "utterance": "lines using \"din\" after \"e\" or \"ky\"."},
  {"targetValue": "(string \"(.*B.*)&(.*b.*)\")", "utterance": "lines that contain both a \"B\" and a \"b\"."},
  {"targetValue": "(string \".*7.*\")", "utterance": "lines that have a '7' in them"},
  {"targetValue": "(string \".*.{6}.*\")", "utterance": "lines using at least 6 characters"},
  {"targetValue": "(string \".*\\\\bzoo\\\\b.*\")", "utterance": "lines that contain the word \"zoo\"."},
  {"targetValue": "(string \".*ei.*\")", "utterance": "lines using the vowel combination \"ei\"."},
  {"targetValue": "(string \"(.*\\\\b[A-Za-z]+\\\\b.*){2,}\")", "utterance": "lines containing at least 2 words"},
  {"targetValue": "(string \".*\\\\b(run|hat)\\\\b.*\")", "utterance": "lines containing the word \"run\" or the word \"hat\""},
  {"targetValue": "(string \".{2,3}\")", "utterance": "lines containing at least 2 characters but not 4 characters or more"},
  {"targetValue": "(string \"~(.*[AEIOUaeiou].*)\")", "utterance": "lines with no vowels"},
  {"targetValue": "(string \".*((\\\\b[A-Za-z]+\\\\b)&(.*q.*)).*\")", "utterance": "lines using words that contain the letter \"q\"."},
  {"targetValue": "(string \"(.*\\\\bshoe\\\\b.*)&(.*\\\\blace\\\\b.*)\")", "utterance": "lines containing the word \"shoe\" and containing the word \"lace\" "},
  {"targetValue": "(string \"(.*\\\\b[A-Za-z]{5}\\\\b.*){2,}\")", "utterance": "lines using 2 or more words comprised of 5 letters"},
  {"targetValue": "(string \"re.*\")", "utterance": "lines starting with 're'"},
  {"targetValue": "(string \".*in.*\")", "utterance": "lines that contain 'in' "},
  {"targetValue": "(string \".*ick.*\")", "utterance": "lines using 'ick' "},
  {"targetValue": "(string \".*\\\\bki[A-Za-z]*\\\\b.*\")", "utterance": "lines that contain words starting with 'ki\"."},
  {"targetValue": "(string \".*[0-9]\")", "utterance": "lines that end in a digit"},
  {"targetValue": "(string \"(.*[AEIOUaeiou].*){2}\")", "utterance": "lines that have two vowels"},
  {"targetValue": "(string \".*\\\\bdi[A-Za-z]*\\\\b.*\")", "utterance": "lines having words starting with 'di'."},
  {"targetValue": "(string \"(.*[AEIOUaeiou].*){5}\")", "utterance": "lines that contain five vowels"},
  {"targetValue": "(string \"(.*tt.*)&(.*bb.*)\")", "utterance": "lines containing 'tt' and containing 'bb' too"},
  {"targetValue": "(string \".*(\\\\bhello\\\\b.{1,5}\\\\bworld\\\\b|\\\\bworld\\\\b.{1,5}\\\\bhello\\\\b).*\")", "utterance": "lines that contain the word \"hello\" within 5 characters of the word \"world\"."},
  {"targetValue": "(string \".*100\")", "utterance": "lines that end with the number \"100\"."},
  {"targetValue": "(string \"((\\\\b[A-Za-z]+\\\\b)&(how)).*\")", "utterance": "lines which begin with the word 'how'"},
  {"targetValue": "(string \"(.*[0-9].*){3,}\")", "utterance": "lines using at least three numerical characters"},
  {"targetValue": "(string \"~(.*a.*)\")", "utterance": "lines that do not have the letter 'a'"},
  {"targetValue": "(string \".*\\\\b[A-Za-z]*ch\\\\b.*\")", "utterance": "lines that contain words ending in \"ch\""},
  {"targetValue": "(string \".*\\\\btrust\\\\b.*\")", "utterance": "lines that contain the word \"trust\"."},
  {"targetValue": "(string \"(.*x.*)&(.*y.*)\")", "utterance": "lines which contain the letter \"x\" and the letter \"y\""},
  {"targetValue": "(string \".*\\\\b[A-Za-z]{3}\\\\b.*\")", "utterance": "lines that have a word of 3 letters"},
  {"targetValue": "(string \".*boby\")", "utterance": "lines that end with \"boby\""},
  {"targetValue": "(string \".*\\\\bcouch\\\\b.*\")", "utterance": "lines that have the word 'couch' included"},
  {"targetValue": "(string \"(.*\\\\b[A-Za-z][A-Za-z]*\\\\b.*){5,}\")", "utterance": "lines that contain at least five words."},
  {"targetValue": "(string \".*ch.*th.*\")", "utterance": "lines which have a th after a 'ch'."},
  {"targetValue": "(string \"(.*z.*){2,}\")", "utterance": "lines which contain the letter \"z\" twice."},
  {"targetValue": "(string \".*\\\\bSel[A-Za-z]*\\\\b.*2\")", "utterance": "lines that end with \"2\" and contain words that begin with \"Sel\""},
  {"targetValue": "(string \".*(w|s).*\")", "utterance": "lines containing either a \"w\" or \"s\" character."},
  {"targetValue": "(string \"(.*q.*){2,}\")", "utterance": "lines which contain 2 or more \"q\"."},
  {"targetValue": "(string \".*\\\\ban[A-Za-z]*\\\\b.*\")", "utterance": "lines that contain words starting with 'an'."},
  {"targetValue": "(string \".*((\\\\b[A-Za-z]+\\\\b)&(.*fa)).*\")", "utterance": "lines having words ending with 'fa'."},
  {"targetValue": "(string \".*vem\")", "utterance": "lines ending with 'vem'"},
  {"targetValue": "(string \".*\\\\bx[A-Za-z]*\\\\b.*\")", "utterance": "lines containing words starting with the letter \"x\"."},
  {"targetValue": "(string \"(.*\\\\b[A-Za-z]+\\\\b.*){7,}\")", "utterance": "lines with 7 or more words"},
  {"targetValue": "(string \"(.*jellyfish.*)&(.*breeding.*)\")", "utterance": "lines that contain 'jellyfish' and mention 'breeding'."},
  {"targetValue": "(string \".*(.*[A-Za-z].*){5,}.*\")", "utterance": "lines that contain 5 or more letters"},
  {"targetValue": "(string \".*((\\\\b.*le\\\\b)&([A-Za-z]+)).*\")", "utterance": "lines that contain words ending with 'le'."},
  {"targetValue": "(string \"(.*\\\\b[A-Za-z]+\\\\b.*)&(.*[0-9].*){4}\")", "utterance": "lines that contain words and 4 numbers."},
  {"targetValue": "(string \".*((\\\\b[A-Za-z][A-Za-z]*\\\\b)&(.*d)).*\")", "utterance": "lines that contain words ending with 'd'."},
  {"targetValue": "(string \".*((\\\\b[A-Za-z]+\\\\b)&(.*l.*)).*\")", "utterance": "lines using a word containing the letter \"l'."},
  {"targetValue": "(string \".*\\\\binoperative\\\\b.*\")", "utterance": "lines containing the word \"inoperative\"."},
  {"targetValue": "(string \"~(.*((\\\\b[A-Za-z]+\\\\b)&(~(a.*))).*)\")", "utterance": "lines with all words beginning with \"a\"."},
  {"targetValue": "(string \".*you\")", "utterance": "lines that end with 'you'."},
  {"targetValue": "(string \".*\\\\b[A-Za-z]{3}s\\\\b.*\")", "utterance": "lines that contain 4 letter words ending in 's'"},
  {"targetValue": "(string \".*[A-Za-z].*h.*\")", "utterance": "lines which contain the letter \"h\" preceded by a letter."},
  {"targetValue": "(string \".*\\\\begg\\\\b.*\")", "utterance": "lines which have the word 'egg'"},
  {"targetValue": "(string \".*(is|it).*\")", "utterance": "lines that contain 'is' or 'it'"},
  {"targetValue": "(string \".*a.*ss.*le.*\")", "utterance": "lines using 'ss' between 'a' and 'le'"},
  {"targetValue": "(string \"(.*\\\\bs[A-Za-z]*\\\\b.*){2}\")", "utterance": "lines that have at least two words that start with 's'."},
  {"targetValue": "(string \"(.*((\\\\b[A-Za-z]+\\\\b)&([A-Za-z]{0,5})).*){5,}\")", "utterance": "lines comprised of 5 or more words containing 5 or fewer letters"},
  {"targetValue": "(string \".*[0-9]*0.*\")", "utterance": "lines that contain a number ending with \"0\""},
  {"targetValue": "(string \".*\\\\bfree\")", "utterance": "lines that end with the word \"free\"."},
  {"targetValue": "(string \".*(ead|pro).*\")", "utterance": "lines which contain 'ead' or 'pro'"},
  {"targetValue": "(string \".*\\\\band\\\\b.*\")", "utterance": "lines that contain the word \"and\""},
  {"targetValue": "(string \".*\\\\b[A-Za-z]{4}\\\\b.*\")", "utterance": "lines using 4 letter words"},
  {"targetValue": "(string \".*((\\\\b[A-Za-z]+\\\\b)&(gi.*)).*\")", "utterance": "lines that contain words starting with 'gi'."},
  {"targetValue": "(string \".*((\\\\b[A-Za-z]+\\\\b)&(pu.*)).*\")", "utterance": "lines that utilize words starting with 'pu'."},
  {"targetValue": "(string \".*e\")", "utterance": "lines that end in 'e'"},
  {"targetValue": "(string \".*a\")", "utterance": "lines end in an 'a'"},
  {"targetValue": "(string \"(.*\\\\b[AEIOUaeiou][A-Za-z]*\\\\b.*){3}\")", "utterance": "lines that have at least three words beginning with a vowel."},
  {"targetValue": "(string \".*([A-Za-z]{3}).*\")", "utterance": "lines which contain a 3 letter string"},
  {"targetValue": "(string \".*try.*car.*say.*|.*say.*car.*try.*\")", "utterance": "lines with \"car\" between \"try\" and \"say\"."},
  {"targetValue": "(string \".*\\\\bthe\\\\b.*\")", "utterance": "lines that contain the word \"the\""},
  {"targetValue": "(string \".*10.*\")", "utterance": "lines that contain the number '10'."},
  {"targetValue": "(string \".*\\\\by[A-Za-z]{5}\\\\b.*\")", "utterance": "lines that contain 6 letter words beginning with the letter 'y'."},
  {"targetValue": "(string \".*\\\\b[AEIOUaeiou][A-Za-z]*\\\\b.*\")", "utterance": "lines that contain a word starting with a vowel."},
  {"targetValue": "(string \"(.*helper.*)&(.*\\\\blittle\\\\b.*helper.*)\")", "utterance": "lines with 'helper' where the word 'little' comes before 'helper'."},
  {"targetValue": "(string \".*Beaker.*\")", "utterance": "lines containing an instance of the name 'Beaker'."},
  {"targetValue": "(string \"qu.*\")", "utterance": "lines which contain \"qu\" at the start"},
  {"targetValue": "(string \"((.*Mr.*)&(.*Mrs.*)&(~(.*(Ms|Miss).*)))\")", "utterance": "lines that show \"Mr\" and \"Mrs\" but not \"Ms\" or \"Miss\"."},
  {"targetValue": "(string \"(.*Canada.*)&(.*Mexico.*)&(~(.*Cuba.*))\")", "utterance": "lines that include \"Canada\" and \"Mexico\" but not \"Cuba\"."},
  {"targetValue": "(string \".*\\\\b[A-Za-z]*ing\\\\b.*\")", "utterance": "lines which contain a word ending in \"ing\"."},
  {"targetValue": "(string \"(.*tumeric.*)&(.*saffron.*)\")", "utterance": "lines that contain \"tumeric\" and \"saffron\""},
  {"targetValue": "(string \"apartheid.*\")", "utterance": "lines that start with \"apartheid\"."},
  {"targetValue": "(string \".*\\\\bh[A-Za-z]*e\\\\b.*\")", "utterance": "lines containing words that start with \"h\" and end with \"e\"."},
  {"targetValue": "(string \"(.*ac.*)&(.*dc.*)\")", "utterance": "lines containing both \"ac\" and \"dc\""},
  {"targetValue": "(string \".*\\\\b[A-Za-z]+\\\\b.*\")", "utterance": "lines composed with a word"},
  {"targetValue": "(string \"~(.*[AEIOUaeiou].*)\")", "utterance": "lines which do not contain a vowel."},
  {"targetValue": "(string \".*\\\\bx[A-Za-z]*\\\\b.*\")", "utterance": "lines using words beginning with the letter 'x'."},
  {"targetValue": "(string \".*\\\\b[A-Za-z]*L\\\\b.*\")", "utterance": "lines containing words that end with \"L\""},
  {"targetValue": "(string \".*\\\\bp[A-Za-z]*\\\\b.*\")", "utterance": "lines that contain words beginning in 'p'"},
  {"targetValue": "(string \".*\\\\bsea\\\\b.*[0-9].*\")", "utterance": "lines that contain the word \"sea\" followed by at least one number."},
  {"targetValue": "(string \".*\\\\b[A-Za-z]{5,}\\\\b.*\")", "utterance": "lines that contain a word containing 5 or more letters."},
  {"targetValue": "(string \"(.*\\\\b[A-Za-z]{5}\\\\b.*){3}\")", "utterance": "lines that contain at least three five letter words"},
  {"targetValue": "(string \".*ugly.*(betty|thomas).*\")", "utterance": "lines that contain 'ugly' before 'betty' or 'thomas'."},
  {"targetValue": "(string \".*\\\\bfa[A-Za-z]*\\\\b.*\")", "utterance": "lines that contain words starting with 'fa'."},
  {"targetValue": "(string \".*fu.*(ba|bar).*\")", "utterance": "lines that contain 'fu' before 'ba' or 'bar'."},
  {"targetValue": "(string \".*.{5,}.*\")", "utterance": "lines using more than 4 characters"},
  {"targetValue": "(string \"(.*[AEIOUaeiou].*){3}\")", "utterance": "lines that contain any three vowels"},
  {"targetValue": "(string \".*((\\\\b.*ta\\\\b)&([A-Za-z]+)).*\")", "utterance": "lines having words ending with 'ta'."},
  {"targetValue": "(string \".*I am mad.*\")", "utterance": "lines which contain \"I am mad\"."},
  {"targetValue": "(string \".*\\\\b[A-Za-z]{4}\\\\b.*\")", "utterance": "lines that use words that are only four letters long."},
  {"targetValue": "(string \"(.*((\\\\b.*G\\\\b)&([A-Za-z]+)).*){5}\")", "utterance": "lines that have five words that all end with the letter \"G\"."},
  {"targetValue": "(string \".*\\\\bi[A-Za-z]*\\\\b.*\")", "utterance": "lines containing words that start with \"i\"."},
  {"targetValue": "(string \".*(mean|nic).*(est|test).*\")", "utterance": "lines containing \"mean\" or \"nic\" before 'est' or 'test' "},
  {"targetValue": "(string \".*((\\\\b[A-Za-z]+\\\\b)&(.*ca.*)).*\")", "utterance": "lines that use words with 'ca'."},
  {"targetValue": "(string \"(.*\\\\b[A-Za-z]+\\\\b.*){10}\")", "utterance": "lines that have ten words."},
  {"targetValue": "(string \".*(re|per).*tain.*\")", "utterance": "lines containing \"tain\" after \"re\" or \"per\"."},
  {"targetValue": "(string \".*o\")", "utterance": "lines that end in 'o'"},
  {"targetValue": "(string \"(.*x.*)&(.*y.*)&(~(.*z.*))\")", "utterance": "lines that contain \"x\" and \"y\" but not \"z\"."},
  {"targetValue": "(string \".*e\")", "utterance": "lines that end in 'e'"},
  {"targetValue": "(string \".*((ea)&([A-Za-z]*)).*\")", "utterance": "lines having the letters 'ea'."},
  {"targetValue": "(string \"(The|For).*\")", "utterance": "lines that begin with \"The\" or \"For\"."},
  {"targetValue": "(string \"(.*V.*)&(.*33.*)\")", "utterance": "lines that contain the letter \"V\" and the number \"33\"."},
  {"targetValue": "(string \"X.*((\\\\b[A-Za-z]+\\\\b)&(.*oa.*)).*\")", "utterance": "lines starting with 'X' followed by a word with 'oa'."},
  {"targetValue": "(string \".*o\")", "utterance": "lines that end with the letter \"o\""},
  {"targetValue": "(string \".*(d|e).*(s|r).*\")", "utterance": "lines using any instance of \"d\" or \"e\" followed by \"s\" or \"r\""},
  {"targetValue": "(string \"(.*\\\\b[A-Za-z][A-Za-z]*\\\\b.*)&(.*[0-9].*){5}\")", "utterance": "lines that contain a word and five numbers."},
  {"targetValue": "(string \".*TRY.*\\,.*LOL.*|.*LOL.*\\,.*TRY.*\")", "utterance": "lines where \"TRY\" is separated from \"LOL\" with a comma"},
  {"targetValue": "(string \".*\\\\b[A-Za-z]*e\\\\b.*\")", "utterance": "lines that contin words ending in \"e\"."},
  {"targetValue": "(string \".*\\\\bblog\\\\b.*\")", "utterance": "lines containing the word \"blog\""},
  {"targetValue": "(string \".*\\\\b[A-Za-z]+\\\\b.*\")", "utterance": "lines using a word"},
  {"targetValue": "(string \"(.*oo.*)&(~(.*d.*o.*a.*|.*a.*o.*d.*))\")", "utterance": "lines which have 'oo', but no instances of 'o' between the letters 'd' and 'a'"},
  {"targetValue": "(string \".*\\\\b[A-Za-z]*en\\\\b.*\")", "utterance": "lines having words ending with 'en'."},
  {"targetValue": "(string \".*\\\\b[A-Za-z]{3}\\\\b.*\")", "utterance": "lines that contain three letter words."},
  {"targetValue": "(string \".*[A-Za-z]{3}.*\")", "utterance": "lines using a 3 letter sequence"},
  {"targetValue": "(string \".*(upper|lower).*\")", "utterance": "lines which contain \"upper\" or \"lower\" "},
  {"targetValue": "(string \".*sandwich.*\")", "utterance": "lines that have the word 'sandwich'"},
  {"targetValue": "(string \".*ia\")", "utterance": "lines ending in 'ia'"},
  {"targetValue": "(string \"once upon a time.*\")", "utterance": "lines that begin with the phrase 'once upon a time'"},
  {"targetValue": "(string \".*as.*\")", "utterance": "lines that utilize the letters 'as'."},
  {"targetValue": "(string \"(.*\\\\bunifax\\\\b.*)&(~(.*\\\\bcolorado\\\\b.*))\")", "utterance": "lines that contain the word \"unifax\" but not the word \"colorado\"."},
  {"targetValue": "(string \"(.*\\\\bWestbury\\\\b.*)&(.*[0-9].*)\")", "utterance": "lines using the word \"Westbury\" next to a number."},
  {"targetValue": "(string \"(.*little.*)&(.*helper.*)\")", "utterance": "lines with \"helper\" and \"little\""},
  {"targetValue": "(string \".*[0-9].*\")", "utterance": "lines that contain digits."},
  {"targetValue": "(string \"(.*she.*){3}\")", "utterance": "lines that contain three \"she\"."},
  {"targetValue": "(string \"(([^A-Za-z])*\\\\b[A-Za-z]+\\\\b([^A-Za-z])*){2}\")", "utterance": "lines that contain exactly two words."},
  {"targetValue": "(string \".*\\\\b(([A-Za-z]+)&(q.*)&(~(.*u.*)))\\\\b.*\")", "utterance": "lines using words that begin with \"q\" but do not have a \"u\"."},
  {"targetValue": "(string \".*((\\\\b[A-Za-z][A-Za-z]*\\\\b)&(du.*)).*\")", "utterance": "lines that contain words starting with 'du'."},
  {"targetValue": "(string \"\\\\b[AEIOUaeiou][A-Za-z]*\\\\b.*\")", "utterance": "lines beginning with words that have a vowel as the first letter."},
  {"targetValue": "(string \"[0-9].*\")", "utterance": "lines that begin with a numeral"},
  {"targetValue": "(string \"(.*\\\\bmobile\\\\b.*)&~(.*\\\\bphone\\\\b.*)\")", "utterance": "lines which contain the word \"mobile\" but do not contain the word \"phone\""},
  {"targetValue": "(string \".*\\\\bG[A-Za-z]*y\\\\b.*\")", "utterance": "lines containing words that begin with \"G\" and end with \"y\""},
  {"targetValue": "(string \"(.*\\\\b[A-Za-z]+\\\\b.*){3,}\")", "utterance": "lines containing at least 3 words"},
  {"targetValue": "(string \"(.*JFK.*)&(~(.*WAS.*))\")", "utterance": "lines that have \"JFK\" but not \"WAS\""},
  {"targetValue": "(string \".*Booyah.*\")", "utterance": "lines that contain the phrase \"Booyah\"."},
  {"targetValue": "(string \".*(.*\\\\bbar\\\\b.*)&(.*\\\\bstress\\\\b.*).*\")", "utterance": "lines that contain both the word \"bar\" and the word \"stress\""},
  {"targetValue": "(string \".*\\\\b[A-Za-z]*c[A-Za-z]*e[A-Za-z]*\\\\b.*\")", "utterance": "lines that contain words that have the letter 'e' occuring after the letter 'c'."},
  {"targetValue": "(string \"(.*[0-9].*)&(.*1.*)\")", "utterance": "lines that contain 3 numbers and one number contains 1."},
  {"targetValue": "(string \"omega.*\")", "utterance": "lines which begin with 'omega'"},
  {"targetValue": "(string \".*((\\\\b.*mo\\\\b)&([A-Za-z]+)).*\")", "utterance": "lines using words ending with 'mo'."},
  {"targetValue": "(string \".*\\\\bBoby\\\\b.*\")", "utterance": "lines that contain the word \"Boby\"."},
  {"targetValue": "(string \".*\\\\bfried\\\\b.*\")", "utterance": "lines containing usage of the word \"fried\"."},
  {"targetValue": "(string \".*\\\\b[A-Za-z]{3}\\\\b.*\")", "utterance": "lines with words that contain 3 letters"},
  {"targetValue": "(string \".*\\\\b[A-Za-z]*ot\\\\b.*\")", "utterance": "lines that use words ending with 'ot'."},
  {"targetValue": "(string \".*.{4,}.*\")", "utterance": "lines using more than 3 characters"},
  {"targetValue": "(string \".*\\\\bnull\\\\b.*\")", "utterance": "lines that contain the word \"null\""},
  {"targetValue": "(string \".*\\\\b[A-Za-z]{5,}\\\\b.*\")", "utterance": "lines using a word which contains at least 5 letters."},
  {"targetValue": "(string \".*\\\\b[A-Za-z]{9,}\\\\b.*\")", "utterance": "lines that use words of at least 9 letters."},
  {"targetValue": "(string \".*\\\\band in this life\\\\b.*\")", "utterance": "lines that match the words \"and in this life\"."},
  {"targetValue": "(string \"(.*\\\\b[A-Za-z]+\\\\b.*){4,}\")", "utterance": "lines that contain at least 4 words."},
  {"targetValue": "(string \"(.*b.*){3,}\")", "utterance": "lines using at least 3 'b'"},
  {"targetValue": "(string \".*x.*\")", "utterance": "lines that contain an \"x\""},
  {"targetValue": "(string \".*-.*\")", "utterance": "lines that contain the symbol '-'."},
  {"targetValue": "(string \"x[A-Za-z]{2}\")", "utterance": "3 letter lines starting with 'x'"},
  {"targetValue": "(string \".*(pol|mi).*(ist|lk).*\")", "utterance": "lines containing \"pol\" or \"mi\" before 'ist' or 'lk' "},
  {"targetValue": "(string \"(.*\\\\b[A-Za-z]{3,}\\\\b.*){2,}\")", "utterance": "lines that have at least 2 words of 3 or more letters"},
  {"targetValue": "(string \".*(\\\\ba\\\\b.*\\-.*\\\\blot\\\\b|\\\\blot\\\\b.*\\-.*\\\\ba\\\\b).*\")", "utterance": "lines that contain \"-\" between words \"a\" and \"lot\"."},
  {"targetValue": "(string \".*\\\\b[A-Za-z]*n\\\\b.*\")", "utterance": "lines with words that end in 'n'."},
  {"targetValue": "(string \".*l(ay|ie).*\")", "utterance": "lines using 'lay' or 'lie'"},
  {"targetValue": "(string \".*((\\\\bs[A-Za-z]*\\\\b)&(\\\\b[A-Za-z]*t\\\\b)).*\")", "utterance": "lines that show \"s\" in the beginning of the word  and \"t\" at the end of the word."},
  {"targetValue": "(string \"(.*de.*st.*)&(.*col.*re.*)\")", "utterance": "lines that have \"de\" before \"st\" and \"re\" after \"col\"."},
  {"targetValue": "(string \"(.*\\\\bf[A-Za-z]*\\\\b.*){5,}\")", "utterance": "lines which contain 5 words starting with \"f\""},
  {"targetValue": "(string \".*puppy.*\")", "utterance": "lines which mention \"puppy\"."},
  {"targetValue": "(string \".*DEF\\..*\")", "utterance": "lines that contain DEF\" with a period immediately after it.\""},
  {"targetValue": "(string \".*\\\\bintellectual\\\\b.*\")", "utterance": "lines using the word \"intellectual\""},
  {"targetValue": "(string \".*ant.*\")", "utterance": "lines containing 'ant'"},
  {"targetValue": "(string \"(.*\\\\bnumber\\\\b.*)&(.*[0-9].*)\")", "utterance": "lines which have the word \"number\" and a number"},
  {"targetValue": "(string \".*\\\\b[A-Za-z]*on\\\\b.*\")", "utterance": "lines using words ending with 'on'."},
  {"targetValue": "(string \"(.*bar)&(.*San Jose.*)\")", "utterance": "lines that end with \"bar\" and include the phrase \"San Jose\"."},
  {"targetValue": "(string \".*\\\\bfu[A-Za-z]*\\\\b.*\")", "utterance": "lines that use words starting with 'fu'."},
  {"targetValue": "(string \"begin.*\")", "utterance": "lines beginning with 'begin'"},
  {"targetValue": "(string \".*(.*\\\\b[A-Za-z]*e\\\\b.*).*\")", "utterance": "lines that contain words ending in 'e'."},
  {"targetValue": "(string \"[AEIOUaeiou].*e\")", "utterance": "lines that start with a vowel and ends in an 'e'."},
  {"targetValue": "(string \"\\\\bthe\\\\b.*\")", "utterance": "lines starting with the word \"the\"."},
  {"targetValue": "(string \"([^0-9]*[0-9][^0-9]*){1,5}&(.*[A-Za-z].*)\")", "utterance": "lines that contain 1 to 5 numbers and 1 letter."},
  {"targetValue": "(string \".*and\")", "utterance": "lines that end with \"and\""},
  {"targetValue": "(string \".*\\\\bpe[A-Za-z]*\\\\b.*pan.*\")", "utterance": "lines that utilize 'pan' following words starting with 'pe'."},
  {"targetValue": "(string \".*\\\\bFacebook\\\\b.*\")", "utterance": "lines that have the word 'Facebook'"},
  {"targetValue": "(string \".*\\\\b[A-Za-z]*re[A-Za-z]*\\\\b.*\")", "utterance": "lines that have words with 're'."},
  {"targetValue": "(string \"(.*((\\\\b[A-Za-z]+\\\\b)&(.*ly.*)).*){3,}\")", "utterance": "lines that have 3 or more words containing the letters \"ly\"."},
  {"targetValue": "(string \".*XYX.*ABC.*\\,.*|.*\\,.*ABC.*XYX.*\")", "utterance": "lines with instances of \"ABC\" between \"XYX\" and a comma"},
  {"targetValue": "(string \".*\\\\b([A-Za-z]+&.*(a|b).*)\\\\b.*\")", "utterance": "lines that have a word containing \"a\" or 'b'"},
  {"targetValue": "(string \"(.*\\\\bof\\\\b.*)|(.*\\\\bin\\\\b.*)\")", "utterance": "lines using the word \"of\" or the word \"in\" "},
  {"targetValue": "(string \"(.*\\\\b[A-Za-z]*y[A-Za-z]*\\\\b.*){2,}\")", "utterance": "lines containing two or more words containing \"y\"."},
  {"targetValue": "(string \".*z.*\")", "utterance": "lines that contain at least one 'z'"},
  {"targetValue": "(string \".*((\\\\b[A-Za-z]+\\\\b)&(.*ire.*)).*\")", "utterance": "lines that contain a word using the letters \"ire\""},
  {"targetValue": "(string \".*(lin|ku).*ser.*\")", "utterance": "lines that have \"ser\" after \"lin\" or \"ku\"."},
  {"targetValue": "(string \".*(.*\\\\b[A-Za-z]{4}\\\\b.*){3}.*\")", "utterance": "lines that have three words comprised of 4 characters each."},
  {"targetValue": "(string \".*az\")", "utterance": "lines ending in 'az'"},
  {"targetValue": "(string \"z.*\")", "utterance": "lines which begin with the letter \"z\"."},
  {"targetValue": "(string \".*(mar|is).*ku.*\")", "utterance": "lines containing \"ku\" after \"mar\" or \"is\"."},
  {"targetValue": "(string \".*(.*[0-9].*){2}&(.*\\\\b[A-Za-z]+\\\\b.*){3}&(.*t.*).*\")", "utterance": "lines that contain 2 numbers and 3 words and contain the letter \"t\"."},
  {"targetValue": "(string \".*\\\\b[A-Za-z]{2,}\\\\b.*\")", "utterance": "lines that include one word using at least 2 letters"},
  {"targetValue": "(string \"(.*A.*)&(~(.*a.*))\")", "utterance": "lines that have a capital \"A\", but not a lowercase \"a\"."},
  {"targetValue": "(string \"e.*\\\\bjr\\\\b.*\")", "utterance": "lines that start with the letter \"e\" followed by the word \"jr\"."},
  {"targetValue": "(string \".*(b|c).*\")", "utterance": "lines containing 'b', or 'c'"},
  {"targetValue": "(string \"(.*Beaker.*)&(~(.*Bunsen.*))\")", "utterance": "lines that contain 'Beaker' but do not contain 'Bunsen'."},
  {"targetValue": "(string \".*3.*4.*5.*|.*5.*4.*3.*\")", "utterance": "lines where '4' is between '3' and '5'"},
  {"targetValue": "(string \".*\\\\b[A-Z]+\\\\b.*\")", "utterance": "lines that contain a word in all uppercase."},
  {"targetValue": "(string \"\\\\bThe\\\\b.*\")", "utterance": "lines which start with the word \"The\""},
  {"targetValue": "(string \"(.*[AEIOUaeiou].*){3,}&(.*\\\\b[A-Za-z]+\\\\b.*){5,}\")", "utterance": "lines containing 3 or more vowels and 5 or more words"},
  {"targetValue": "(string \".*\\\\bbo[A-Za-z]*\\\\b.*\")", "utterance": "lines that contain words starting with 'bo'."},
  {"targetValue": "(string \"[A-Za-z]{6}\")", "utterance": "6 letter lines"},
  {"targetValue": "(string \".*ock.*\")", "utterance": "lines with 'ock' "},
  {"targetValue": "(string \".*[A-Z].*[0-9].*\")", "utterance": "lines using a capital letter followed by a number"},
  {"targetValue": "(string \"ABC.*TRY\")", "utterance": "lines that start with \"ABC\" and end with \"TRY\""},
  {"targetValue": "(string \".*cem\")", "utterance": "lines ending with 'cem'"},
  {"targetValue": "(string \".*[0-9].*\")", "utterance": "lines that contain a number."},
  {"targetValue": "(string \".*((\\\\b.*g\\\\b)&([A-Za-z]+)).*\")", "utterance": "lines that have words ending with a 'g'"},
  {"targetValue": "(string \"(.*\\\\ba\\\\b.*){2}\")", "utterance": "lines that contain 2 repetitions of the word \"a\""},
  {"targetValue": "(string \".*\\\\bko[A-Za-z]*\\\\b.*\")", "utterance": "lines that utilize words starting with 'ko'."},
  {"targetValue": "(string \"(.*1:15.*)&(.*\\\\bmidnight\\\\b.*)\")", "utterance": "lines that show the text \"1:15\" and the word \"midnight\"."},
  {"targetValue": "(string \"(.*[0-9].*){3}\")", "utterance": "lines that contain three or more digits"},
  {"targetValue": "(string \".*(ness|ed).*\")", "utterance": "lines using 'ness' or 'ed'"},
  {"targetValue": "(string \"[A-Z]*\")", "utterance": "lines that are only comprised of uppercase letters."},
  {"targetValue": "(string \".*lugg.*age.*\")", "utterance": "lines using 'lugg' before 'age'"},
  {"targetValue": "(string \".*zyx.*\\\\band\\\\b.*cba.*|.*cba.*\\\\band\\\\b.*zyx.*\")", "utterance": "lines with the word 'and' between 'zyx' and 'cba'"},
  {"targetValue": "(string \"(.*11.*)&(.*eleven.*)\")", "utterance": "lines containing the number 11 and the word \"eleven\"."},
  {"targetValue": "(string \"(a|b|d)*\")", "utterance": "lines that are composed of the letters \"a\", \"b\", and \"d\"."},
  {"targetValue": "(string \"(.*Randy.*)&(.*fox.*)\")", "utterance": "lines that mention 'Randy' and also contain 'fox'"},
  {"targetValue": "(string \".*\\!.*\")", "utterance": "lines utilizing '!'"},
  {"targetValue": "(string \".*[AEIOUaeiou]\")", "utterance": "lines that end with vowels."},
  {"targetValue": "(string \".*(pl|tr).*ace.*\")", "utterance": "lines that have \"ace\" after \"pl\" or \"tr\"."},
  {"targetValue": "(string \"tra.*\")", "utterance": "lines starting with 'tra'"},
  {"targetValue": "(string \".*(.*ca.*(r|t).*).*\")", "utterance": "lines containing one instance of \"ca\" followed by an \"r\" or a \"t\""},
  {"targetValue": "(string \"((([^A-Za-z])*\\\\b[A-Za-z]+\\\\b([^A-Za-z])*){2}&.{7})\")", "utterance": "lines where there are exactly two words and 7 characters."},
  {"targetValue": "(string \"(.*\\\\b[A-Za-z]+\\\\b.*){3}&(.*[0-9].*){2}\")", "utterance": "lines that have 3 words and two numbers."},
  {"targetValue": "(string \".*\\\\bfi[A-Za-z]*\\\\b.*\")", "utterance": "lines using words starting with 'fi'."},
  {"targetValue": "(string \".*buck.*\")", "utterance": "lines with \"buck\""},
  {"targetValue": "(string \".*\\\\bc[A-Za-z]*d\\\\b.*\")", "utterance": "lines containing words which begin with \"c\" and end with \"d\""},
  {"targetValue": "(string \".*9.*\")", "utterance": "lines containg the number '9'."},
  {"targetValue": "(string \".*((\\\\b[A-Za-z]+\\\\b)&(ni.*)).*\\\\bknight\\\\b.*\")", "utterance": "lines that utilize words starting with 'ni' followed by the word 'knight'"},
  {"targetValue": "(string \"y.*z.*[0-9]\")", "utterance": "lines which begin with 'y', has a 'z' in the middle and end in a number."},
  {"targetValue": "(string \"(.*tal.*)&(.*tel.*)\")", "utterance": "lines containing 'tal' and containing 'tel' too"},
  {"targetValue": "(string \".*staphyloccus aureus.*\")", "utterance": "lines that contain the \"staphyloccus aureus.\""},
  {"targetValue": "(string \"(.*Jane.*)&(~(.*(Janet|2).*))\")", "utterance": "lines that use \"Jane\" but not \"Janet\" or \"2\"."},
  {"targetValue": "(string \".*\\\\bgo[A-Za-z]*\\\\b.*\")", "utterance": "lines that contain words starting with 'go'."},
  {"targetValue": "(string \"f.*&(([^A-Za-z])*\\\\b[A-Za-z]+\\\\b([^A-Za-z])*){2}\")", "utterance": "lines that contain only 2 words, and, begin with the letter 'f'."},
  {"targetValue": "(string \"(([^A-Za-z])*\\\\b[A-Za-z]+\\\\b([^A-Za-z])*){4}\")", "utterance": "lines containing only four words."},
  {"targetValue": "(string \"~(.*excellent.*)\")", "utterance": "lines which do not contain 'excellent'"},
  {"targetValue": "(string \".*hey\")", "utterance": "lines that end with 'hey' "},
  {"targetValue": "(string \"(~(.*old.*))&((.*ion.*){1,})\")", "utterance": "lines that have no instances of \"old\" but at least one instance of \"ion\"."},
  {"targetValue": "(string \".*\\\\br[A-Za-z]*\\\\b.*\")", "utterance": "lines that utilize words starting with 'r'."},
  {"targetValue": "(string \".*\\\\b[A-Za-z]*n\\\\b.*\")", "utterance": "lines using words that end with the letter \"n\""},
  {"targetValue": "(string \".*[0-9].*\")", "utterance": "lines that use numbers."},
  {"targetValue": "(string \".*((\\\\b[A-Za-z][A-Za-z]*\\\\b)&(fo.*)).*\")", "utterance": "lines having words starting with 'fo'."},
  {"targetValue": "(string \".*\\\\b[A-Za-z]*ire[A-Za-z]*\\\\b.*\")", "utterance": "lines using words that have \"ire\""},
  {"targetValue": "(string \"(([^A-Za-z])*\\\\b[A-Za-z]+\\\\b([^A-Za-z])*){3}\")", "utterance": "lines that only have 3 words"},
  {"targetValue": "(string \".*((\\\\b[A-Za-z][A-Za-z]*\\\\b)&(s.*)).*\")", "utterance": "lines that contain words starting in 's'"},
  {"targetValue": "(string \"(.*[A-Za-z].*){7,}\")", "utterance": "lines that contain text made up of more than 6 letters total."},
  {"targetValue": "(string \".*(\\\\b[A-Za-z]+a[A-Za-z]+\\\\b).*\")", "utterance": "lines that contain the letter \"a\" in the middle of a word."},
  {"targetValue": "(string \"([^b]*b[^b]*){4}\")", "utterance": "lines where the letter 'b' appears exactly 4 times"},
  {"targetValue": "(string \".*\\\\bl[A-Za-z]*\\\\b.*\")", "utterance": "lines that contain a word  starting with 'l'."},
  {"targetValue": "(string \".*((\\\\b[A-Za-z][A-Za-z]*\\\\b)&(.*[AEIOUaeiou].*){5}).*\")", "utterance": "lines that contain a word with five or more vowels."},
  {"targetValue": "(string \"~([A-Z].*)\")", "utterance": "lines which do not begin with an uppercase letter."},
  {"targetValue": "(string \"(n.*)&(.*y)\")", "utterance": "lines which start with \"n\" and end with \"y\""},
  {"targetValue": "(string \"(.*\\\\by[A-Za-z]*\\\\b.*){2}\")", "utterance": "lines that contain at least two words beginging with \"y\"."},
  {"targetValue": "(string \".*\\\\b[A-Za-z]*ude[A-Za-z]*\\\\b.*\")", "utterance": "lines that have a word containing the string \"ude\""},
  {"targetValue": "(string \".*\\\\b[A-Za-z]*ro[A-Za-z]*\\\\b.*\")", "utterance": "lines having words with 'ro'."},
  {"targetValue": "(string \"(.*\\\\b[A-Za-z]+\\\\b.*){4,}\")", "utterance": "lines using 4 or more words"},
  {"targetValue": "(string \"(.*c.*){4,}\")", "utterance": "lines using at least 4 'c'"},
  {"targetValue": "(string \"cl.*\")", "utterance": "lines starting with 'cl'"},
  {"targetValue": "(string \".*number.*\")", "utterance": "lines that contain 'number' written in words."},
  {"targetValue": "(string \"(.*\\\\b[A-Za-z]+\\\\b.*){3}\")", "utterance": "lines that have at least 3 words."},
  {"targetValue": "(string \".*(.*\\\\b[A-Za-z]+\\\\b.*){3}.*\")", "utterance": "lines which have 3 words."},
  {"targetValue": "(string \".*this is it.*\")", "utterance": "lines utilizing the phrase \"this is it\"."},
  {"targetValue": "(string \".*((\\\\b[A-Za-z]+\\\\b)&(ba.*)).*\")", "utterance": "lines that contain words starting with 'ba'."},
  {"targetValue": "(string \"(.*ou.*)&(.*th.*)\")", "utterance": "lines using the vowel combination \"ou\" and \"th\"."},
  {"targetValue": "(string \"(.*rh.*)&~(.*y.*)\")", "utterance": "lines which contain \"rh\" but do not contain the letter \"y\"."},
  {"targetValue": "(string \".*ight.*\")", "utterance": "lines that have any instance of \"ight\"."},
  {"targetValue": "(string \".*ably.*\\\\b[A-Za-z]*ed\\\\b.*\")", "utterance": "lines using the letter sequence \"ably\" followed by a word ending in \"ed\"."},
  {"targetValue": "(string \".*\\\\b[A-Za-z]*lo\\\\b.*\")", "utterance": "lines having words ending with 'lo'."},
  {"targetValue": "(string \".*(c|d).*\\\\b[A-Z][A-Za-z]*\\\\b.*\")", "utterance": "lines that feature 'c' or 'd' before words that start with capital letters."},
  {"targetValue": "(string \".*(car.*foo.*cop|cop.*foo.*car).*\")", "utterance": "lines using \"foo\" between \"car\" and \"cop\""},
  {"targetValue": "(string \".*\\\\bBean\\\\b.*\")", "utterance": "lines that list the word \"Bean\"."},
  {"targetValue": "(string \".*\\\\b[A-Za-z]{6,}\\\\b.*\")", "utterance": "lines which have at least one word which has six or more letters."},
  {"targetValue": "(string \".*[AEIOUaeiou].*\")", "utterance": "lines containing vowels"},
  {"targetValue": "(string \"sign.*\")", "utterance": "lines starting with 'sign'"},
  {"targetValue": "(string \".*\\\\bab[A-Za-z]*\\\\b.*\")", "utterance": "lines that utilize words starting with 'ab'."},
  {"targetValue": "(string \".*[0-9].*\")", "utterance": "lines that contain numbers."},
  {"targetValue": "(string \"(.*\\\\b[A-Za-z]+\\\\b.*){4,}\")", "utterance": "lines containing 4 words."},
  {"targetValue": "(string \".*(abc.*(.*[0-9].*){3}.*def|.*def.*(.*[0-9].*){3}.*abc).*\")", "utterance": "lines that have three numbers between \"abc\" and \"def\"."},
  {"targetValue": "(string \"(.*native.*)&(.*tribes.*)\")", "utterance": "lines that use 'native' and 'tribes'."},
  {"targetValue": "(string \"~(.*[AEIOUaeiou].*)\")", "utterance": "lines that does not contain any vowels."},
  {"targetValue": "(string \"(.*\\\\b[A-Za-z]{1,3}\\\\b.*){5,}\")", "utterance": "lines that have 5 or more words of 3 or fewer letters."},
  {"targetValue": "(string \"(.*\\?.*)|(.*!.*)\")", "utterance": "lines that contain a '?' or an '!'."},
  {"targetValue": "(string \"[0-9].*\")", "utterance": "lines that begin with a number"},
  {"targetValue": "(string \"(.*[0-9].*){2,}\")", "utterance": "lines that contain at least 2 digits."},
  {"targetValue": "(string \".*[0-9].*\")", "utterance": "lines that use a numerical number."},
  {"targetValue": "(string \".*\\\\b[A-Za-z]*ie[A-Za-z]*\\\\b.*\")", "utterance": "lines that contain words using \"ie\""},
  {"targetValue": "(string \"(.*fast.*)&(.*2.*)\")", "utterance": "lines that contain \"fast\" and contain \"2\""},
  {"targetValue": "(string \"[^A-Za-z]*\\\\b[A-Za-z]+\\\\b[^A-Za-z]*\")", "utterance": "lines where there is only one word."},
  {"targetValue": "(string \"[A-Za-z]\")", "utterance": "lines containing only a letter"},
  {"targetValue": "(string \".*\\\\bcountry\\\\b.*\")", "utterance": "lines containing the word \"country\""},
  {"targetValue": "(string \".*\\\\b[A-Za-z]*ei[A-Za-z]*\\\\b.*\")", "utterance": "lines that have words containing \"ei\""},
  {"targetValue": "(string \".*\\\\b[A-Za-z]*os\\\\b.*\")", "utterance": "lines that contain words ending in 'os'"},
  {"targetValue": "(string \".*\\\\b[A-Za-z]*ing\\\\b.*\")", "utterance": "lines that have words ending in \"ing\"."},
  {"targetValue": "(string \"(.*cake.*)&(.*candles.*)\")", "utterance": "lines that include both 'cake' and 'candles'."},
  {"targetValue": "(string \".*(.*[0-9].*)&(.*[A-Za-z].*){2}.*\")", "utterance": "lines using 1 number and 2 letters"},
  {"targetValue": "(string \".*\\\\b[A-Za-z]{5}\\\\b.*\")", "utterance": "lines using five letter words."},
  {"targetValue": "(string \".*(sing|sung).*\")", "utterance": "lines containing 'sing' or 'sung'"},
  {"targetValue": "(string \".*(.*fu.*){6}.*\")", "utterance": "lines using 6 instances of 'fu'"},
  {"targetValue": "(string \".{6,}\")", "utterance": "lines that have at least 6 characters"},
  {"targetValue": "(string \".*\\\\b[A-Za-z]{4}th\\\\b.*\")", "utterance": "lines that have six letter words ending in \"th\"."},
  {"targetValue": "(string \".*\\\\bpray\")", "utterance": "lines containing the word 'pray' at the end."},
  {"targetValue": "(string \".*(.*[0-9].*){5}&(.*\\\\b[A-Za-z]*ly[A-Za-z]*\\\\b.*){2}.*\")", "utterance": "lines that contain 5 numbers and 2 words that contain \"ly\"."},
  {"targetValue": "(string \"(([^A-Za-z])*\\\\b[A-Za-z]+\\\\b([^A-Za-z])*){3}\")", "utterance": "lines that utilize only three words"},
  {"targetValue": "(string \".*(B|b)ill.*\")", "utterance": "lines using 'Bill' or 'bill'"},
  {"targetValue": "(string \"~(.*[AEIOUaeiou].*)\")", "utterance": "lines that have no vowels."},
  {"targetValue": "(string \".*[0-9].*\")", "utterance": "lines that have a number in them"},
  {"targetValue": "(string \"(.*\\\\b[A-Za-z]+\\\\b.*){7}\")", "utterance": "lines that contain 7 or more words"},
  {"targetValue": "(string \".*((\\\\b[A-Za-z]+\\\\b)&(be.*)).*\")", "utterance": "lines using words starting with 'be'."},
  {"targetValue": "(string \".*\\\\b[A-Za-z]*at\\\\b.*\")", "utterance": "lines that use words ending with 'at'."},
  {"targetValue": "(string \".*(.*Pat.*)&(.*\\\\bturkey\\\\b.*).*\")", "utterance": "lines which mention 'Pat' with the word 'turkey'."},
  {"targetValue": "(string \".*[0-9].*ABC.*\")", "utterance": "lines that have a number, but only if it is followed by \"ABC\""},
  {"targetValue": "(string \"(.*\\\\b[A-Za-z]{2}\\\\b.*){2}\")", "utterance": "lines that contain two words that have two letters."},
  {"targetValue": "(string \"a.*y\")", "utterance": "lines that end in 'y' and begins in 'a'."},
  {"targetValue": "(string \".*I went into.*\")", "utterance": "lines that match to the text \"I went into\"."},
  {"targetValue": "(string \".*hula\")", "utterance": "lines which end with 'hula' "},
  {"targetValue": "(string \"total\\\\b.*\")", "utterance": "lines that begins with the word \"total\"."},
  {"targetValue": "(string \".*(.*\\\\bGod\\\\b.*).*\")", "utterance": "lines using the word \"God\"."},
  {"targetValue": "(string \".*(([A-Za-z]+)&(\\\\bbu.*\\\\b)).*\")", "utterance": "lines that utilize words starting with 'bu'."},
  {"targetValue": "(string \"(.*Freddie Mercury.*)&(.*AIDS.*)\")", "utterance": "lines that contain \"Freddie Mercury\" and contain \"AIDS\"."},
  {"targetValue": "(string \"(([^A-Za-z]*\\\\b[A-Za-z]+\\\\b[^A-Za-z]*){0,5})&(.*\\\\bk[A-Za-z]*\\\\b.*)\")", "utterance": "lines that are composed of 5 words or less where at least one word begins with the letter \"k\"."},
  {"targetValue": "(string \"(.*\\\\bY[A-Za-z]*\\\\b.*){3}\")", "utterance": "lines that contain three words that start with the letter 'Y'."},
  {"targetValue": "(string \".*(.*\\\\b[A-Za-z]{3}\\\\b.*)&(.*\\\\b[A-Za-z]{2}\\\\b.*).*\")", "utterance": "lines that contain a 3 letter word and a 2 letter word."},
  {"targetValue": "(string \".*\\\\ba([A-Za-z]*a)?\\\\b.*\")", "utterance": "lines that contain a word starting with 'a' and ending with 'a'"},
  {"targetValue": "(string \"\\\\b[A-Za-z]*w[A-Za-z]*\\\\b.*\")", "utterance": "lines that start with words containing \"w\"."},
  {"targetValue": "(string \".*33.*\")", "utterance": "lines that use the number '33'."},
  {"targetValue": "(string \"alpha.*\")", "utterance": "lines which start with 'alpha'"},
  {"targetValue": "(string \"(([^A-Za-z])*\\\\b[A-Za-z]+\\\\b([^A-Za-z])*){2}\")", "utterance": "lines that have only two words in them."},
  {"targetValue": "(string \"(.*b.*){4}\")", "utterance": "lines that contain 4 or more \"b\""},
  {"targetValue": "(string \".*\\\\b[A-Za-z]*ers[A-Za-z]*\\\\b.*\")", "utterance": "lines containing words using the letters \"ers\"."},
  {"targetValue": "(string \".*tch.*\")", "utterance": "lines which have instances of \"tch\"."},
  {"targetValue": "(string \".*gue.*\")", "utterance": "lines using the string \"gue\""},
  {"targetValue": "(string \".*bcb.*aba.*cbc.*|.*cbc.*aba.*bcb.*\")", "utterance": "lines that have 'aba' between 'bcb' and 'cbc'"},
  {"targetValue": "(string \".*New Zealand.*\")", "utterance": "lines containing the country name \"New Zealand\"."},
  {"targetValue": "(string \"(.*i.*)&(.*e.*)&(~(.*u.*))\")", "utterance": "lines which contain both \"i\" and \"e\" but no instances of \"u\"."},
  {"targetValue": "(string \"(.*\\\\b[A-Za-z]{3}\\\\b.*)&(.*[0-9].*)\")", "utterance": "lines that contain a number and contain a 3 letter word."},
  {"targetValue": "(string \"start.*\")", "utterance": "lines which start with 'start'"},
  {"targetValue": "(string \".*ox.*en.*\")", "utterance": "lines using 'ox' before 'en'"},
  {"targetValue": "(string \".*l.*y.*\")", "utterance": "lines containing 'l' before 'y'"},
  {"targetValue": "(string \"a.*z\")", "utterance": "lines that begin with 'a' and end with 'z'"},
  {"targetValue": "(string \".*lake.*&(.*\\\\bhouse\\\\b.*)\")", "utterance": "lines containing \"lake\" and containing the word \"house\""},
  {"targetValue": "(string \"(.*\\\\b[A-Za-z]+\\\\b.*){5}\")", "utterance": "lines using 5 or more words."},
  {"targetValue": "(string \".*((\\\\b[A-Za-z]+\\\\b)&(.*[AEIOUaeiou].*){3}).*\")", "utterance": "lines that contain words with at least 3 vowels"},
  {"targetValue": "(string \".*red.*eak.*\")", "utterance": "lines that have \"eak\" after \"red\""},
  {"targetValue": "(string \".*\\\\bpreordained\\\\b.*\")", "utterance": "lines containing the word \"preordained\"."},
  {"targetValue": "(string \"(.*\\\\bmoot\\\\b.*)&(.*\\\\b[A-Za-z]{6,}\\\\b.*){3,}\")", "utterance": "lines that feature the word \"moot\", and at least 3 words of 6 letters or more."},
  {"targetValue": "(string \".*(.*irl.*){2}.*\")", "utterance": "lines using 2 instances of 'irl'"},
  {"targetValue": "(string \".*(.*[A-Z].*){4}.*\")", "utterance": "lines that contain 4 or more capital letters"},
  {"targetValue": "(string \".*after\")", "utterance": "lines that end with 'after' "},
  {"targetValue": "(string \".*\\\\b[A-Za-z]{4}\\\\b.*\")", "utterance": "lines that contain four letter words."},
  {"targetValue": "(string \"iffl.*\")", "utterance": "lines that start with 'iffl' "},
  {"targetValue": "(string \".*on.*\")", "utterance": "lines that contain 'on' "},
  {"targetValue": "(string \"[0-9].*(street|avenue)\")", "utterance": "lines that begin with a number and end with \"street\" or \"avenue\"."},
  {"targetValue": "(string \".*[AEIOUaeioui].*\")", "utterance": "lines with vowels"},
  {"targetValue": "(string \".*li(ves|fes|fe).*\")", "utterance": "lines using 'lives', 'lifes', or 'life'"},
  {"targetValue": "(string \".*then I said.*\")", "utterance": "lines that contain the text \"then I said\"."},
  {"targetValue": "(string \".*\\\\bmovie\\\\b.*\")", "utterance": "lines that contain the word \"movie\" in them."},
  {"targetValue": "(string \"([^A-Za-z]*\\\\b[A-Za-z]+\\\\b[^A-Za-z]*){0,5}&(.*\\\\b[A-Za-z]+\\\\b.*){4,}\")", "utterance": "lines that have less than 6 words but more than 3 words."},
  {"targetValue": "(string \"(.*ly.*){2,}\")", "utterance": "lines using at least 2 instances of \"ly\""},
  {"targetValue": "(string \".*\\\\bfa[A-Za-z]*\\\\b.*\")", "utterance": "lines containing words that start with \"fa\""},
  {"targetValue": "(string \"(.*GHF.*)&(~(.*JFK.*))\")", "utterance": "lines containing \"GHF\", but not \"JFK\""},
  {"targetValue": "(string \".*\\\\bH[A-Za-z]*\\\\b.*\")", "utterance": "lines which have words beginning with 'H'."},
  {"targetValue": "(string \".*((\\\\b[A-Za-z][A-Za-z]*\\\\b)&(.*i.*e.*)).*\")", "utterance": "lines where there is at least one word in which 'e' follows 'i'"},
  {"targetValue": "(string \".*((\\\\b[A-Za-z]+\\\\b)&(.*te)).*\")", "utterance": "lines having words ending with 'te'."},
  {"targetValue": "(string \".*((\\\\b[A-Za-z]+\\\\b)&(.*y)&(~(w.*))).*\")", "utterance": "lines that contain words that end in 'y' that do not begin with 'w'"},
  {"targetValue": "(string \".*(.*\\\\b[A-Za-z][A-Za-z]*\\\\b.*){5}.*\")", "utterance": "lines that contain 5 or more words."},
  {"targetValue": "(string \".*\\\\b[A-Za-z]*az\\\\b.*\")", "utterance": "lines that contain words ending in \"az\""},
  {"targetValue": "(string \".*[0-9].*\")", "utterance": "lines that contain any numbers."},
  {"targetValue": "(string \".*1.*\")", "utterance": "lines utilizing the number '1'."},
  {"targetValue": "(string \".*\\\\bwhite\\\\b.*\")", "utterance": "lines that use the word \"white\""},
  {"targetValue": "(string \"~(.*[0-9].*)\")", "utterance": "lines which do not have numbers."},
  {"targetValue": "(string \".*[0-9]\")", "utterance": "lines that end with numbers."},
  {"targetValue": "(string \".*\\\\b[A-Za-z]{5}\\\\b.*\")", "utterance": "lines containing words that  have 5 letters in them."},
  {"targetValue": "(string \".*at.*\")", "utterance": "lines with instances of \"at\"."},
  {"targetValue": "(string \"(.*x.*)&(.*y.*)\")", "utterance": "lines which contain \"x\" and \"y\"."},
  {"targetValue": "(string \"~(.*\\\\bthe\\\\b.*)\")", "utterance": "lines that do not use the word 'the'"},
  {"targetValue": "(string \".*(y|z).*\")", "utterance": "lines that contain either of 'y' or 'z'"},
  {"targetValue": "(string \".*\\\\b[A-Za-z]{3}\\\\b.*\")", "utterance": "lines using three letter words."},
  {"targetValue": "(string \".*\\\\blaughing\\\\b.*\")", "utterance": "lines containing the word \"laughing\"."},
  {"targetValue": "(string \".*\\\\btrade\\\\b.*\")", "utterance": "lines containing the word \"trade\"."},
  {"targetValue": "(string \".*\\\\bsand\\\\b.*\\\\band\\\\b.*\\\\btide\\\\b.*|.*\\\\btide\\\\b.*\\\\band\\\\b.*\\\\bsand\\\\b.*\")", "utterance": "lines where the word \"and\" appears between the words \"sand\" and \"tide\""},
  {"targetValue": "(string \".*[0-9].*\")", "utterance": "lines with numbers"},
  {"targetValue": "(string \".*[0-9].*\\..*ABC.*\")", "utterance": "lines that contain a period after a number, but only if before \"ABC\"."},
  {"targetValue": "(string \".*((\\\\b[A-Za-z]+\\\\b)&(.*[AEIOUaeiou].*){2}).*\")", "utterance": "lines that contain at least 2 vowels in a word."},
  {"targetValue": "(string \"(.*\\\\b[A-Za-z]{5,}\\\\b.*){2}\")", "utterance": "lines that have two words containing 5 or more letters."},
  {"targetValue": "(string \".*(life|lives).*\")", "utterance": "lines using 'life' or 'lives'"},
  {"targetValue": "(string \".{4}\")", "utterance": "lines that have 4 characters"},
  {"targetValue": "(string \"(.*\\!)&(~(.*surprise.*))\")", "utterance": "lines that end in '!' but do not contain 'surprise'."},
  {"targetValue": "(string \"(.*[0-9].*){3}&(.*\\\\bkitten\\\\b.*).*\")", "utterance": "lines with three numbers and the word 'kitten'."},
  {"targetValue": "(string \"~(.*[A-Za-z].*)\")", "utterance": "lines that have no letters."},
  {"targetValue": "(string \".*(art|led).*\")", "utterance": "lines using 'art' or 'led'"},
  {"targetValue": "(string \".*\\\\bhouse\\\\b.*\")", "utterance": "lines containing the word 'house'."},
  {"targetValue": "(string \".*7.*\")", "utterance": "lines that utilize the number '7'."},
  {"targetValue": "(string \".*(.*b.*){3}.*\")", "utterance": "lines using 3 instances of 'b'"},
  {"targetValue": "(string \".*((\\\\b[A-Za-z]+\\\\b)&(.*ra.*)).*\")", "utterance": "lines that include words with 'ra'."},
  {"targetValue": "(string \".*((\\\\b[A-Za-z]+\\\\b)&(.*oo)).*\")", "utterance": "lines having words ending with 'oo'."},
  {"targetValue": "(string \"(.*\\\\b[A-Za-z]+\\\\b.*){3}\")", "utterance": "lines that contain 3 words."},
  {"targetValue": "(string \"(.*f.*){7}\")", "utterance": "lines using 7 'f'"},
  {"targetValue": "(string \".*\\\\bbar\\\\b.*\")", "utterance": "lines that contain the word \"bar\""},
  {"targetValue": "(string \".*(er|let).*wig.*\")", "utterance": "lines that contain \"wig\" after \"er\" or \"let\"."},
  {"targetValue": "(string \".*\\\\b[A-Za-z]*ant[A-Za-z]*\\\\b.*\")", "utterance": "lines that contain words using the letters \"ant\""},
  {"targetValue": "(string \"(.*[0-9].*){2}ABC\")", "utterance": "lines that ends with 'ABC' and contain two numbers."},
  {"targetValue": "(string \"([^A-Za-z])*\\\\b[A-Za-z]+\\\\b([^A-Za-z])*\")", "utterance": "lines containing only one word"},
  {"targetValue": "(string \".*New York.*\")", "utterance": "lines that contain the text, \"New York\"."},
  {"targetValue": "(string \"(.*\\\\bhurry\\\\b.*)(.*\\\\bup\\\\b.*)\")", "utterance": "lines using the word \"hurry\" followed by the word \"up\"."},
  {"targetValue": "(string \".*[0-9].*\")", "utterance": "lines which do have numbers."},
  {"targetValue": "(string \".*(.*\\$.*)\")", "utterance": "lines that utilize the '$' symbol."},
  {"targetValue": "(string \".*ABC.*.{3}.*WEX.*|.*WEX.*.{3}.*ABC.*\")", "utterance": "lines where there are three characters between instances of \"ABC\" and \"WEX\""},
  {"targetValue": "(string \"(.*oo.*)&(.*at.*)\")", "utterance": "lines containing \"oo\" and \"at\"."},
  {"targetValue": "(string \"(.*\\\\b[A-Za-z]*c\\\\b.*){6,}\")", "utterance": "lines that have more than 5 words ending with a \"c.\""},
  {"targetValue": "(string \"(.*left.*)&(.*right.*)\")", "utterance": "lines containing 'left' and also containing 'right'"},
  {"targetValue": "(string \".*(dre|ber).*\")", "utterance": "lines that contain 'dre' or 'ber'"},
  {"targetValue": "(string \".*n[A-Za-z]{2}.*\")", "utterance": "lines using a 3 letter sequence starting with 'n'"},
  {"targetValue": "(string \"c.*\")", "utterance": "lines that start with the letter 'c'"},
  {"targetValue": "(string \".*un.*\")", "utterance": "lines with 'un' "},
  {"targetValue": "(string \".*oe.*\")", "utterance": "lines that have \"oe\"."},
  {"targetValue": "(string \"~(.*[0-9].*)\")", "utterance": "lines that do not contain a number."},
  {"targetValue": "(string \".*(ch|dh).*\")", "utterance": "lines containing 'ch' or 'dh'"},
  {"targetValue": "(string \"(.*tran.*)&(.*\\\\bnguyen\\\\b.*)\")", "utterance": "lines that contain \"tran\" and the word \"nguyen\"."},
  {"targetValue": "(string \".*(.*8.*)&(.*3.*).*\")", "utterance": "lines containing '8' and containing a '3' as well."},
  {"targetValue": "(string \".*\\\\b[A-Za-z]*X\\\\b.*\")", "utterance": "lines that have the letter 'X' at the end of a word."},
  {"targetValue": "(string \".*.{4}.*\")", "utterance": "lines using at least 4 characters"},
  {"targetValue": "(string \"(.*\\\\blaugh\\\\b.*)&(.*[0-9].*)\")", "utterance": "lines that have the word \"laugh\", and at least 1 number."},
  {"targetValue": "(string \"(.*\\\\bthe\\\\b.*)&(.*\\\\bcold\\\\b.*)\")", "utterance": "lines that contain the words \"the\" and  \"cold\"."},
  {"targetValue": "(string \".*stupid.*\")", "utterance": "lines using 'pid' immediately after 'stu'"},
  {"targetValue": "(string \"news.*\")", "utterance": "lines that start with 'news' "},
  {"targetValue": "(string \".*\\\\bth[A-Za-z]*\\\\b.*\")", "utterance": "lines in which there are words that begin with \"th\"."},
  {"targetValue": "(string \"\\\\bTopo\\\\b.*\")", "utterance": "lines that begin with the word \"Topo\"."},
  {"targetValue": "(string \".*(.*\\\\b[A-Za-z]*aught[A-Za-z]*\\\\b.*).*\")", "utterance": "lines that contain words using aught in them."},
  {"targetValue": "(string \".*mo.*((\\\\b[A-Za-z]+\\\\b)&(fo.*)).*\")", "utterance": "lines that use 'mo' followed by words starting with 'fo'"},
  {"targetValue": "(string \".*2.*\")", "utterance": "lines utilizing the number '2'."},
  {"targetValue": "(string \"~(.*((\\\\b[A-Za-z]+\\\\b)&([^AEIOUaeiou]*)).*)\")", "utterance": "lines that contain at least one vowel in each word."},
  {"targetValue": "(string \".*fer\")", "utterance": "lines ending with 'fer'"},
  {"targetValue": "(string \"(.*\\\\b[A-Za-z]{4,}\\\\b.*){3,}\")", "utterance": "lines composed of at least 3 words of 4 or more letters"},
  {"targetValue": "(string \"(.*\\\\b[AEIOUaeiou][A-Za-z]*\\\\b.*){5}\")", "utterance": "lines that have at least five words that start with a vowel."},
  {"targetValue": "(string \".*\\\".*\")", "utterance": "lines that use the '\"' symbol"},
  {"targetValue": "(string \"(.*\\\\b[A-Za-z]{5}\\\\b.*){3}\")", "utterance": "lines that have three words of five letters each."},
  {"targetValue": "(string \"the\\\\b.*\")", "utterance": "lines that begin with the word \"the\"."},
  {"targetValue": "(string \".{5}s\")", "utterance": "lines of 6 characters that end with the letter \"s\"."},
  {"targetValue": "(string \"(.*tron.*)&(~(.*bot.*))\")", "utterance": "lines that contain the word 'tron' but not 'bot'."},
  {"targetValue": "(string \".*efg.*\\\\bcar\\\\b.*\")", "utterance": "lines that have 'efg' followed by the word 'car'"},
  {"targetValue": "(string \".*\\\\bg[A-Za-z]*\\\\b.*\")", "utterance": "lines that contain words starting with the letter \"g\""},
  {"targetValue": "(string \"([^A-Za-z]*((\\\\b[A-Za-z]+\\\\b)&([A-Za-z]{4,})&(.*a.*))[^A-Za-z]*){0,5}\")", "utterance": "lines that contain 5 or less words that have 4 or more letters where one of those letters is an \"a\"."},
  {"targetValue": "(string \".*\\\\bda[A-Za-z]*\\\\b.*\")", "utterance": "lines that contain words starting with 'da'."},
  {"targetValue": "(string \"(.*12345.*)&(.*54321.*)\")", "utterance": "lines that have the numbers '12345' and '54321'."},
  {"targetValue": "(string \".*\\\\bb[A-Za-z]*\\\\b.*\")", "utterance": "lines that have words that start with 'b'."},
  {"targetValue": "(string \".*((\\\\b[A-Za-z]+\\\\b)&(~(.*[AEIOUaeiou].*))).*\")", "utterance": "lines that contain at least one word without any vowels."},
  {"targetValue": "(string \"[A-Za-z]{2}\")", "utterance": "2 letter lines"},
  {"targetValue": "(string \".*\\\\b[A-Za-z]*[aeiouAEIOU]\\\\b.*\")", "utterance": "lines using words that end with a vowel."},
  {"targetValue": "(string \".*((\\\\b.*as\\\\b)&([A-Za-z]+)).*\")", "utterance": "lines that have words ending with 'as'."},
  {"targetValue": "(string \".*.{5}.*\")", "utterance": "lines using at least 5 characters"},
  {"targetValue": "(string \"([^0-9]*)|((([^0-9]*)&(.*ABC.*)&(.*XYZ.*)).*)\")", "utterance": "lines where numbers exist only after a sequence of \"ABC\" and \"XYZ\""},
  {"targetValue": "(string \"(.*bit.*)&(~(.*ch.*))\")", "utterance": "lines with \"bit\" and not \"ch\"."},
  {"targetValue": "(string \"((.*ing.*)&(.*out.*)&(~(.*(sh|cl).*)))\")", "utterance": "lines which have \"ing\" and \"out\" but not \"sh\" or \"cl\"."},
  {"targetValue": "(string \"A.*|An.*\")", "utterance": "lines that start with 'A' or An"},
  {"targetValue": "(string \".*.{6,}.*\")", "utterance": "lines using more than 5 characters"},
  {"targetValue": "(string \"(.*\\\"[A-Za-z]+\\\".*){2,}\")", "utterance": "lines which contain multiple quoted words."},
  {"targetValue": "(string \"(.*\\\\bKelly\\\\b.*)&(~(.*\\\\bChris\\\\b.*))\")", "utterance": "lines that contain the word \"Kelly\" but do not contain the word \"Chris\"."},
  {"targetValue": "(string \"[AEIOUaeiou]*\")", "utterance": "lines that only contain vowels."},
  {"targetValue": "(string \".*\\\\b[A-Za-z]*(ing|est)\\\\b.*\")", "utterance": "lines that have words ending in \"ing\" or \"est\"."},
  {"targetValue": "(string \".*\\\\bQuasi\\\\b.*\")", "utterance": "lines with 'Quasi' as a stand alone word."},
  {"targetValue": "(string \".*\\\\btag\\\\b.*\")", "utterance": "lines containing the word \"tag\"."},
  {"targetValue": "(string \"(.*[A-Za-z].*)&(.*[0-9].*)&(~(.*[A-Z].*))\")", "utterance": "lines containing both letters and numbers, but no capitals."},
  {"targetValue": "(string \"(.*[0-9].*){2}&(.*aby.*)&(.*oz.*)\")", "utterance": "lines using at least two numbers, \"aby\", and \"oz\"."},
  {"targetValue": "(string \".*1.*\")", "utterance": "lines that utilize the number '1'"},
  {"targetValue": "(string \"(.*z.*)&(~(.*q.*))\")", "utterance": "lines containing the letter \"z\" but not the letter \"q\"."},
  {"targetValue": "(string \".*\\\\bz[A-Za-z]{2}\\\\b.*\")", "utterance": "lines containing 3 letter words starting with \"z\" "},
  {"targetValue": "(string \".*\\\\b[AEIOUaeiou][A-Za-z]*y\\\\b.*\")", "utterance": "lines using a word starting with a vowel and ending with 'y'"},
  {"targetValue": "(string \".*((.*g)&(\\\\b[A-Za-z][A-Za-z]*\\\\b)).*\")", "utterance": "lines that use words ending in 'g'"},
  {"targetValue": "(string \".*\\\\bfur\\\\b.*\")", "utterance": "lines with words matching the word 'fur'."},
  {"targetValue": "(string \"an.*\")", "utterance": "lines that start with \"an\""},
  {"targetValue": "(string \".*((\\\\b[A-Za-z]+\\\\b)&(.*be.*)).*\")", "utterance": "lines utilizing words with 'be'."},
  {"targetValue": "(string \"~(.*((\\\\b[A-Za-z]+\\\\b)&([^a].*)).*)\")", "utterance": "lines in which all words start with the letter \"a\"."},
  {"targetValue": "(string \"[aeiouAEIOU](.*[aeiouAEIOU])?\")", "utterance": "lines that begin with a vowel and end with a vowel"},
  {"targetValue": "(string \".*\\\\bna[A-Za-z]*\\\\b.*\")", "utterance": "lines that contain words starting with 'na'."},
  {"targetValue": "(string \"(.*fireflies.*)&(~(.*butterflies.*))\")", "utterance": "lines that mention 'fireflies' but not 'butterflies'."},
  {"targetValue": "(string \".*x.*\")", "utterance": "lines having the letter 'x'."},
  {"targetValue": "(string \".*q.*u.*|.*u.*q.*\")", "utterance": "lines which contain \"q\" and \"u\""},
  {"targetValue": "(string \".*(ly|ny).*\")", "utterance": "lines using 'ly' or 'ny'"},
  {"targetValue": "(string \"Transport One.*[0-9]\")", "utterance": "lines that start with \"Transport One\" and end in a number."},
  {"targetValue": "(string \".*\\.\\.\\.\")", "utterance": "lines that end with '...'"},
  {"targetValue": "(string \"(.*;.*){3,}\")", "utterance": "lines containing 3 or more \";\" "},
  {"targetValue": "(string \"~(.*((\\\\b[A-Za-z]+\\\\b)&([^I]*)).*)\")", "utterance": "lines that contain 'I' in each word."},
  {"targetValue": "(string \".*(bedrock|yabadabadoo).*\")", "utterance": "lines that contain the phrase \"bedrock\" or \"yabadabadoo\"."},
  {"targetValue": "(string \".*\\\\bge[A-Za-z]*\\\\b.*\")", "utterance": "lines that contain words starting with 'ge'."},
  {"targetValue": "(string \".*\\\\b[A-Za-z]*s\\\\b.*\")", "utterance": "lines containing words that end with s."},
  {"targetValue": "(string \".*\\\\b[A-Za-z]*[aeiouAEIOU][A-Za-z]*\\\\b.*\")", "utterance": "lines using words which have a vowel."},
  {"targetValue": "(string \".*an.*imal.*\")", "utterance": "lines using 'an' before 'imal'"},
  {"targetValue": "(string \".*if.*(then|else).*\")", "utterance": "lines that contain 'if' before 'then' or 'else'."},
  {"targetValue": "(string \".*\\\\bG[A-Za-z]*\\\\b.*\")", "utterance": "lines using words that begin with the letter \"G\"."},
  {"targetValue": "(string \".*\\\\b[A-Za-z]*mie\\\\b.*\")", "utterance": "lines containing words ending with 'mie'."},
  {"targetValue": "(string \"gates.*\")", "utterance": "lines that start with 'gates' "},
  {"targetValue": "(string \".*.{3,}.*\")", "utterance": "lines composed of 3 or more characters"},
  {"targetValue": "(string \"(Al.*)&(~(.*[0-9].*))\")", "utterance": "lines that start with \"Al\" but do not contain any numbers."},
  {"targetValue": "(string \".*\\\\b[A-Za-z]*ness\\\\b.*\")", "utterance": "lines using words ending in 'ness'"},
  {"targetValue": "(string \".*\\\\b[A-Za-z]*ca\\\\b.*\\\\b[A-Za-z]*att\\\\b.*\")", "utterance": "lines with words that end with 'ca' before words that end with 'att'"},
  {"targetValue": "(string \".*((\\\\b[A-Za-z]+\\\\b)&(.*ci.*)).*\")", "utterance": "lines that contain words with 'ci'."},
  {"targetValue": "(string \".*\\\\b[A-Za-z]*re\\\\b.*\")", "utterance": "lines containing words ending in \"re\" "},
  {"targetValue": "(string \"(([^A-Za-z])*\\\\b[A-Za-z]+\\\\b([^A-Za-z])*){4}\")", "utterance": "lines that use only four words"},
  {"targetValue": "(string \".*f\")", "utterance": "lines ending with the letter \"f\""},
  {"targetValue": "(string \".*t\")", "utterance": "lines that end in 't'"},
  {"targetValue": "(string \"t.*\")", "utterance": "lines that start with the letter \"t\"."},
  {"targetValue": "(string \".*\\\\bt[A-Za-z]{4}\\\\b.*\")", "utterance": "lines containing a 5 letter word beginning with 't'"},
  {"targetValue": "(string \".*uns\")", "utterance": "lines ending with 'uns'"},
  {"targetValue": "(string \".*end\")", "utterance": "lines ending with 'end'"},
  {"targetValue": "(string \".*(day|to).*\")", "utterance": "lines that contain 'day' or 'to'"},
  {"targetValue": "(string \".*(.*\\\\b[A-Za-z]+\\\\b.*)&(.*12.*).*\")", "utterance": "lines that contain at least one word and the number '12'"},
  {"targetValue": "(string \".*\\\\bmonkey\\\\b.*wrench\")", "utterance": "lines ending with 'wrench' that use the word 'monkey'."},
  {"targetValue": "(string \".*[0-9].*\")", "utterance": "lines that contain at least one digit."},
  {"targetValue": "(string \"a(.*a)?\")", "utterance": "lines starting and ending with 'a'"},
  {"targetValue": "(string \".*car.*\")", "utterance": "lines that have 'car'"},
  {"targetValue": "(string \".*\\\\b[A-Za-z]*ing\\\\b.*\")", "utterance": "lines of words whose last letters are \"ing\"."},
  {"targetValue": "(string \"s.*y\")", "utterance": "lines beginning with the letter 's' and ending with the letter 'y'"},
  {"targetValue": "(string \".*\\\\b[A-Za-z]*es\\\\b.*\")", "utterance": "lines that use words ending with 'es'."},
  {"targetValue": "(string \".*[AEIOUaeiou].*(.{3}).*\")", "utterance": "lines that have 3 characters after the first vowel"},
  {"targetValue": "(string \".*\\\\b[A-Za-z]*nt\\\\b.*z\")", "utterance": "lines ending in 'z' preceded by a word that ends in \"nt\""},
  {"targetValue": "(string \".*\\\\bday\\\\b.*abc.*\")", "utterance": "lines using the word 'day' followed by the letters 'abc'"},
  {"targetValue": "(string \".*\\\\bgu[A-Za-z]*\\\\b.*\")", "utterance": "lines that contain words starting with 'gu'."},
  {"targetValue": "(string \".*\\\\bpray\\\\b.*\")", "utterance": "lines that have the word \"pray\"."},
  {"targetValue": "(string \".*I.*\\\\b[A-Za-z]+\\\\b.*you.*|.*you.*\\\\b[A-Za-z]+\\\\b.*I.*\")", "utterance": "lines that contain words between 'I' and 'you'"},
  {"targetValue": "(string \"[^A-Za-z]*\\\\b[A-Za-z]+\\\\b((.*\\\\b[A-Za-z]+\\\\b.*)&(.*[0-9].*))\\\\b[A-Za-z]+\\\\b[^A-Za-z]*\")", "utterance": "lines that contain 3 words with at least 1 number in between the 1st and 3rd word."},
  {"targetValue": "(string \".*and so it came to pass.*\")", "utterance": "lines containing the text \"and so it came to pass\""},
  {"targetValue": "(string \"(.*helper.*)&(~(.*\\\\blittle\\\\b.*helper.*))\")", "utterance": "lines with 'helper' where the word 'little' does not appear before 'helper' in that line."},
  {"targetValue": "(string \".*\\\\b[A-Za-z]*ked\\\\b.*\")", "utterance": "lines that have a word ending with the letters \"ked\"."},
  {"targetValue": "(string \"[AEIOUaeiou].*\")", "utterance": "lines that each begin with a vowel"},
  {"targetValue": "(string \".*fuzz\")", "utterance": "lines ending in 'fuzz'"},
  {"targetValue": "(string \"(.*e.*){6}\")", "utterance": "lines using 6 'e'"},
  {"targetValue": "(string \".*((\\\\b[A-Za-z]+\\\\b)&([AEIOUaeiou].*)&(.*[AEIOUaeiou])).*\")", "utterance": "lines that contain words starting with a vowel and ending with a vowel."},
  {"targetValue": "(string \".*\\\\b[A-Za-z]*oo[A-Za-z]*\\\\b.*\")", "utterance": "lines that contain words using \"oo\" in them."},
  {"targetValue": "(string \".*out.*\")", "utterance": "lines which contain 'out' "},
  {"targetValue": "(string \".*\\\\b[A-Za-z]*tu\\\\b.*\")", "utterance": "lines using words ending with 'tu'."},
  {"targetValue": "(string \".*((.*wi.*sh.*)&(.*st.*ar.*)).*\")", "utterance": "lines having \"sh\" after \"wi\" and \"st\" before \"ar\"."},
  {"targetValue": "(string \"The\\\\b.*\")", "utterance": "lines that start with the word 'The'"},
  {"targetValue": "(string \"(.*\\\\b[A-Za-z]+\\\\b.*){6,}\")", "utterance": "lines that contain more than five words."},
  {"targetValue": "(string \"~(.*c.*)\")", "utterance": "lines that do not contain the letter \"c\"."},
  {"targetValue": "(string \"the.*\")", "utterance": "lines starting with 'the'"},
  {"targetValue": "(string \".*\\\\b[A-Za-z]*[AEIOUaeiou]\\\\b.*\")", "utterance": "lines that contain words ending with a vowel."},
  {"targetValue": "(string \".*((\\\\b[A-Za-z]+\\\\b)&(.{8,})).*\")", "utterance": "lines that contain at least one word which is 8 characters or longer"},
  {"targetValue": "(string \".*((\\\\b[A-Za-z]+\\\\b)&(.*el)).*\")", "utterance": "lines that contain words ending with 'el'."},
  {"targetValue": "(string \".*((\\\\b.*P\\\\b)&([A-Za-z]+)).*.*\")", "utterance": "lines containing words that end with 'P'"},
  {"targetValue": "(string \".*\\\\b(([A-Za-z]*[A-Z][A-Za-z]*)&([A-Za-z]*[a-z][A-Za-z]*))\\\\b.*\")", "utterance": "lines using a word which has uppercase letters and has lowercase letters"},
  {"targetValue": "(string \".*\\\\b[A-Za-z]*re[A-Za-z]*\\\\b.*\")", "utterance": "lines that contain words with 're'."},
  {"targetValue": "(string \"a.*c\")", "utterance": "lines that start with the letter 'a' and end with the letter 'c'"},
  {"targetValue": "(string \".*.{3}SBC.*\")", "utterance": "lines that have three characters before the sequence \"SBC\""},
  {"targetValue": "(string \".*no.*\")", "utterance": "lines using the letter pair \"no\""},
  {"targetValue": "(string \"(.*[AEIOUaeiou].*){3,}\")", "utterance": "lines containing 3 or more vowels."},
  {"targetValue": "(string \".*\\\\b[A-Za-z]{2,}\\\\b.*\")", "utterance": "lines which contain a word using 2 or more letters"},
  {"targetValue": "(string \"~(.*((\\\\b[A-Za-z]+\\\\b)&(~(.*er))).*)\")", "utterance": "lines that contain \"er\" at the end of every word."},
  {"targetValue": "(string \".*(.*ug.*){4}.*\")", "utterance": "lines using 4 instances of 'ug'"},
  {"targetValue": "(string \"~(.*the.*)\")", "utterance": "lines that do not have 'the' in them"},
  {"targetValue": "(string \"(.*[A-Z].*)&(.*[a-z].*)\")", "utterance": "lines containing at least one uppercase letter, and at least one lowercase letter"},
  {"targetValue": "(string \"(.*Wednesday.*)&(~(.*Sunday.*))\")", "utterance": "lines that contain the phrase \"Wednesday\" but not \"Sunday\"."},
  {"targetValue": "(string \".*\\\\brevolution\\\\b.*\")", "utterance": "lines containing the word \"revolution\"."},
  {"targetValue": "(string \".*xyz\")", "utterance": "lines ending with 'xyz'"},
  {"targetValue": "(string \".*\\\\b[A-Za-z]{9}\\\\b.*\")", "utterance": "lines that contain a nine letter word."},
  {"targetValue": "(string \"(.*fox.*)&(~(.*\\\\bchicken\\\\b.*))\")", "utterance": "lines with fox that do not contain the word chicken."},
  {"targetValue": "(string \".*((\\\\b[A-Za-z]+\\\\b)&(.*fe)).*\")", "utterance": "lines utilizing words ending with 'fe'."},
  {"targetValue": "(string \"~(.*\\\\b[A-Za-z]{4}\\\\b.*)\")", "utterance": "lines that do not have any word consisting of 4 letters."},
  {"targetValue": "(string \"oocl.*\")", "utterance": "lines which start with 'oocl' "},
  {"targetValue": "(string \"~(.*[0-9].*)\")", "utterance": "lines that do not contain numerical characters."},
  {"targetValue": "(string \"(.*gophers.*)&(.*\\\\bgrass\\\\b.*)&(.*\\\\bseeds\\\\b.*)\")", "utterance": "lines using 'gophers' and containing the words 'grass' and 'seeds'."},
  {"targetValue": "(string \"(.*annou.*)&(.*irth.*)&(~(.*c.*))\")", "utterance": "lines containing \"annou\" and \"irth\" that do not have a \"c\" anywhere."},
  {"targetValue": "(string \".*x.*z.*\")", "utterance": "lines using 'x' before 'z'"},
  {"targetValue": "(string \"f.*\")", "utterance": "lines beginning with the letter 'f'"},
  {"targetValue": "(string \"[A-Za-z]{4}\")", "utterance": "4 letter lines"},
  {"targetValue": "(string \".*(.*0.*){2,}.*\")", "utterance": "lines using numbers that show two or more \"0\"."}
]
