"Year","Host","","Winners","Score","Runners-up","","Third place","Score","Fourth place","","Number of teams"
"1930\nDetails","Uruguay","","Uruguay","4–2","Argentina","","United States","","Yugoslavia","","13"
"1934\nDetails","Italy","","Italy","2–1\n(aet)","Czechoslovakia","","Germany","3–2","Austria","","16"
"1938\nDetails","France","","Italy","4–2","Hungary","","Brazil","4–2","Sweden","","16/15"
"1950\nDetails","Brazil","","Uruguay","","Brazil","","Sweden","","Spain","","16/13"
"1954\nDetails","Switzerland","","West Germany","3–2","Hungary","","Austria","3–1","Uruguay","","16"
"1958\nDetails","Sweden","","Brazil","5–2","Sweden","","France","6–3","West Germany","","16"
"1962\nDetails","Chile","","Brazil","3–1","Czechoslovakia","","Chile","1–0","Yugoslavia","","16"
"1966\nDetails","England","","England","4–2\n(aet)","West Germany","","Portugal","2–1","Soviet Union","","16"
"1970\nDetails","Mexico","","Brazil","4–1","Italy","","West Germany","1–0","Uruguay","","16"
"1974\nDetails","West Germany","","West Germany","2–1","Netherlands","","Poland","1–0","Brazil","","16"
"1978\nDetails","Argentina","","Argentina","3–1\n(aet)","Netherlands","","Brazil","2–1","Italy","","16"
"1982\nDetails","Spain","","Italy","3–1","West Germany","","Poland","3–2","France","","24"
"1986\nDetails","Mexico","","Argentina","3–2","West Germany","","France","4–2\n(aet)","Belgium","","24"
"1990\nDetails","Italy","","West Germany","1–0","Argentina","","Italy","2–1","England","","24"
"1994\nDetails","United States","","Brazil","0–0\n(3–2p)","Italy","","Sweden","4–0","Bulgaria","","24"
"1998\nDetails","France","","France","3–0","Brazil","","Croatia","2–1","Netherlands","","32"
"2002\nDetails","South Korea\n&  Japan","","Brazil","2–0","Germany","","Turkey","3–2","South Korea","","32"
"2006\nDetails","Germany","","Italy","1–1\n(5–3p)","France","","Germany","3–1","Portugal","","32"
"2010\nDetails","South Africa","","Spain","1–0\n(aet)","Netherlands","","Germany","3–2","Uruguay","","32"
